timestamp,value
2017-12-06 00:00:00,9320.721
2017-12-06 00:15:00,8182.8
2017-12-06 00:30:00,7991.016
2017-12-06 00:45:00,9313.617
2017-12-06 01:00:00,9650.306
2017-12-06 01:15:00,8918.684000000001
2017-12-06 01:30:00,8849.072
2017-12-06 01:45:00,8523.75
2017-12-06 02:00:00,8623.193000000001
2017-12-06 02:15:00,8421.465
2017-12-06 02:30:00,8103.245
2017-12-06 02:45:00,8620.351999999999
2017-12-06 03:00:00,8552.162
2017-12-06 03:15:00,8155.809
2017-12-06 03:30:00,7843.271
2017-12-06 03:45:00,8255.252
2017-12-06 04:00:00,7976.81
2017-12-06 04:15:00,8030.793000000001
2017-12-06 04:30:00,7866.001
2017-12-06 04:45:00,8171.435
2017-12-06 05:00:00,7472.486999999999
2017-12-06 05:15:00,7218.195
2017-12-06 05:30:00,8218.315999999999
2017-12-06 05:45:00,7726.779
2017-12-06 06:00:00,7550.621999999999
2017-12-06 06:15:00,7779.342
2017-12-06 06:30:00,7792.128000000001
2017-12-06 06:45:00,8329.124
2017-12-06 07:00:00,8604.726
2017-12-06 07:15:00,9809.415
2017-12-06 07:30:00,9879.026
2017-12-06 07:45:00,10080.75
2017-12-06 08:00:00,10688.78
2017-12-06 08:15:00,10649.01
2017-12-06 08:30:00,10330.79
2017-12-06 08:45:00,8985.453000000001
2017-12-06 09:00:00,9127.516
2017-12-06 09:15:00,9712.813
2017-12-06 09:30:00,9628.996
2017-12-06 09:45:00,10339.31
2017-12-06 10:00:00,10559.51
2017-12-06 10:15:00,10553.82
2017-12-06 10:30:00,10275.38
2017-12-06 10:45:00,10367.72
2017-12-06 11:00:00,10167.41
2017-12-06 11:15:00,10215.71
2017-12-06 11:30:00,9761.114
2017-12-06 11:45:00,9580.695
2017-12-06 12:00:00,9481.251
2017-12-06 12:15:00,9249.689
2017-12-06 12:30:00,9462.783000000001
2017-12-06 12:45:00,10032.45
2017-12-06 13:00:00,10006.88
2017-12-06 13:15:00,9398.855
2017-12-06 13:30:00,9495.457
2017-12-06 13:45:00,9269.578000000001
2017-12-06 14:00:00,10151.79
2017-12-06 14:15:00,9583.536
2017-12-06 14:30:00,8219.735999999999
2017-12-06 14:45:00,8181.379
2017-12-06 15:00:00,9257.503
2017-12-06 15:15:00,9323.562
2017-12-06 15:30:00,10048.08
2017-12-06 15:45:00,9714.233
2017-12-06 16:00:00,9816.52
2017-12-06 16:15:00,9489.774
2017-12-06 16:30:00,9675.877
2017-12-06 16:45:00,9755.431999999999
2017-12-06 17:00:00,10327.94
2017-12-06 17:15:00,10026.77
2017-12-06 17:30:00,10256.91
2017-12-06 17:45:00,9846.351999999999
2017-12-06 18:00:00,9950.058
2017-12-06 18:15:00,10285.32
2017-12-06 18:30:00,9955.74
2017-12-06 18:45:00,9913.121
2017-12-06 19:00:00,9870.502
2017-12-06 19:15:00,10445.86
2017-12-06 19:30:00,10457.22
2017-12-06 19:45:00,10328.65
2017-12-06 20:00:00,10410.34
2017-12-06 20:15:00,10923.19
2017-12-06 20:30:00,10953.02
2017-12-06 20:45:00,10913.24
2017-12-06 21:00:00,10663.21
2017-12-06 21:15:00,10667.47
2017-12-06 21:30:00,10427.39
2017-12-06 21:45:00,10359.2
2017-12-06 22:00:00,10425.97
2017-12-06 22:15:00,10661.79
2017-12-06 22:30:00,10224.24
2017-12-06 22:45:00,9923.065
2017-12-06 23:00:00,8724.059000000001
2017-12-06 23:15:00,8807.876
2017-12-06 23:30:00,9434.37
2017-12-06 23:45:00,9482.673
2017-12-07 00:00:00,9225.539
2017-12-07 00:15:00,8938.572
2017-12-07 00:30:00,9548.021
2017-12-07 00:45:00,9136.039
2017-12-07 01:00:00,8378.847
2017-12-07 01:15:00,8175.696999999999
2017-12-07 01:30:00,7685.581999999999
2017-12-07 01:45:00,7408.56
2017-12-07 02:00:00,7323.321999999999
2017-12-07 02:15:00,7198.307
2017-12-07 02:30:00,7485.273
2017-12-07 02:45:00,8043.579000000001
2017-12-07 03:00:00,7434.13
2017-12-07 03:15:00,6952.539000000001
2017-12-07 03:30:00,6844.571
2017-12-07 03:45:00,6841.73
2017-12-07 04:00:00,7239.505
2017-12-07 04:15:00,6925.547
2017-12-07 04:30:00,6915.603
2017-12-07 04:45:00,7265.076
2017-12-07 05:00:00,6953.959
2017-12-07 05:15:00,7794.97
2017-12-07 05:30:00,7367.361999999999
2017-12-07 05:45:00,7101.704000000001
2017-12-07 06:00:00,7091.76
2017-12-07 06:15:00,7188.361999999999
2017-12-07 06:30:00,7469.646
2017-12-07 06:45:00,7814.858
2017-12-07 07:00:00,8431.409
2017-12-07 07:15:00,9249.689
2017-12-07 07:30:00,8620.353000000001
2017-12-07 07:45:00,8329.124
2017-12-07 08:00:00,9721.337
2017-12-07 08:15:00,9705.71
2017-12-07 08:30:00,9404.537
2017-12-07 08:45:00,10208.61
2017-12-07 09:00:00,9793.788
2017-12-07 09:15:00,9849.904
2017-12-07 09:30:00,9958.582
2017-12-07 09:45:00,9833.565999999999
2017-12-07 10:00:00,9950.058
2017-12-07 10:15:00,9624.734
2017-12-07 10:30:00,9918.804
2017-12-07 10:45:00,9734.123
2017-12-07 11:00:00,10242.71
2017-12-07 11:15:00,9718.496
2017-12-07 11:30:00,9280.943000000001
2017-12-07 11:45:00,9194.285
2017-12-07 12:00:00,10158.89
2017-12-07 12:15:00,10168.83
2017-12-07 12:30:00,10295.27
2017-12-07 12:45:00,10337.89
2017-12-07 13:00:00,10344.28
2017-12-07 13:15:00,10103.49
2017-12-07 13:30:00,9834.985999999999
2017-12-07 13:45:00,9536.655
2017-12-07 14:00:00,9518.188
2017-12-07 14:15:00,9965.685
2017-12-07 14:30:00,9427.978000000001
2017-12-07 14:45:00,8170.014
2017-12-07 15:00:00,8341.91
2017-12-07 15:15:00,9270.289
2017-12-07 15:30:00,9861.979
2017-12-07 15:45:00,10256.91
2017-12-07 16:00:00,9981.312
2017-12-07 16:15:00,9584.957
2017-12-07 16:30:00,9978.471
2017-12-07 16:45:00,9942.955
2017-12-07 17:00:00,10609.23
2017-12-07 17:15:00,10116.27
2017-12-07 17:30:00,10127.63
2017-12-07 17:45:00,10013.99
2017-12-07 18:00:00,9773.9
2017-12-07 18:15:00,10310.9
2017-12-07 18:30:00,10083.6
2017-12-07 18:45:00,10038.14
2017-12-07 19:00:00,10165.99
2017-12-07 19:15:00,10431.65
2017-12-07 19:30:00,10360.62
2017-12-07 19:45:00,10174.52
2017-12-07 20:00:00,10272.54
2017-12-07 20:15:00,10697.31
2017-12-07 20:30:00,10532.51
2017-12-07 20:45:00,10437.33
2017-12-07 21:00:00,10332.21
2017-12-07 21:15:00,10670.31
2017-12-07 21:30:00,10595.02
2017-12-07 21:45:00,10444.43
2017-12-07 22:00:00,10471.43
2017-12-07 22:15:00,10421.71
2017-12-07 22:30:00,10133.32
2017-12-07 22:45:00,9937.271
2017-12-07 23:00:00,9807.995
2017-12-07 23:15:00,8574.893
2017-12-07 23:30:00,8582.705
2017-12-07 23:45:00,9181.5
2017-12-08 00:00:00,9198.546999999999
2017-12-08 00:15:00,8844.813
2017-12-08 00:30:00,9067.85
2017-12-08 00:45:00,8925.787
2017-12-08 01:00:00,8540.796999999999
2017-12-08 01:15:00,8259.514000000001
2017-12-08 01:30:00,7704.05
2017-12-08 01:45:00,7329.004
2017-12-08 02:00:00,7218.195
2017-12-08 02:15:00,7101.704000000001
2017-12-08 02:30:00,7137.22
2017-12-08 02:45:00,6986.633000000001
2017-12-08 03:00:00,7495.218000000001
2017-12-08 03:15:00,7560.566
2017-12-08 03:30:00,6648.525
2017-12-08 03:45:00,6705.35
2017-12-08 04:00:00,7043.4580000000005
2017-12-08 04:15:00,6546.24
2017-12-08 04:30:00,7022.15
2017-12-08 04:45:00,7425.607
2017-12-08 05:00:00,7462.543000000001
2017-12-08 05:15:00,7694.105
2017-12-08 05:30:00,7365.94
2017-12-08 05:45:00,8047.840999999999
2017-12-08 06:00:00,8330.545
2017-12-08 06:15:00,8279.401
2017-12-08 06:30:00,7946.976
2017-12-08 06:45:00,8455.561
2017-12-08 07:00:00,8553.583
2017-12-08 07:15:00,9332.086
2017-12-08 07:30:00,9749.749
2017-12-08 07:45:00,9505.402
2017-12-08 08:00:00,9320.721
2017-12-08 08:15:00,10754.13
2017-12-08 08:30:00,10707.25
2017-12-08 08:45:00,11464.44
2017-12-08 09:00:00,11488.59
2017-12-08 09:15:00,11299.65
2017-12-08 09:30:00,10210.03
2017-12-08 09:45:00,10012.56
2017-12-08 10:00:00,10005.46
2017-12-08 10:15:00,9616.211
2017-12-08 10:30:00,9999.779
2017-12-08 10:45:00,9661.671
2017-12-08 11:00:00,9749.749
2017-12-08 11:15:00,10009.72
2017-12-08 11:30:00,10344.99
2017-12-08 11:45:00,10266.86
2017-12-08 12:00:00,10335.05
2017-12-08 12:15:00,10276.8
2017-12-08 12:30:00,9742.646
2017-12-08 12:45:00,9494.037
2017-12-08 13:00:00,9910.28
2017-12-08 13:15:00,10001.2
2017-12-08 13:30:00,9499.719000000001
2017-12-08 13:45:00,9131.777
2017-12-08 14:00:00,8863.279
2017-12-08 14:15:00,8976.93
2017-12-08 14:30:00,9628.996
2017-12-08 14:45:00,9503.981
2017-12-08 15:00:00,9107.627
2017-12-08 15:15:00,8780.883
2017-12-08 15:30:00,8789.405999999999
2017-12-08 15:45:00,9289.466999999999
2017-12-08 16:00:00,9658.829
2017-12-08 16:15:00,8437.091999999999
2017-12-08 16:30:00,7824.803000000001
2017-12-08 16:45:00,8617.511999999999
2017-12-08 17:00:00,9332.086
2017-12-08 17:15:00,9844.931999999999
2017-12-08 17:30:00,9758.273000000001
2017-12-08 17:45:00,9592.06
2017-12-08 18:00:00,9734.123
2017-12-08 18:15:00,9653.146
2017-12-08 18:30:00,10040.98
2017-12-08 18:45:00,10008.3
2017-12-08 19:00:00,9759.693000000001
2017-12-08 19:15:00,9807.994
2017-12-08 19:30:00,10232.76
2017-12-08 19:45:00,10136.16
2017-12-08 20:00:00,10103.49
2017-12-08 20:15:00,9992.676
2017-12-08 20:30:00,10018.25
2017-12-08 20:45:00,10129.06
2017-12-08 21:00:00,9799.471
2017-12-08 21:15:00,9709.973
2017-12-08 21:30:00,9871.924
2017-12-08 21:45:00,10258.33
2017-12-08 22:00:00,9031.623
2017-12-08 22:15:00,9519.607
2017-12-08 22:30:00,9498.299
2017-12-08 22:45:00,9293.729
2017-12-08 23:00:00,9542.338
2017-12-08 23:15:00,9074.952
2017-12-08 23:30:00,9218.436
2017-12-08 23:45:00,8833.446
2017-12-09 00:00:00,8871.803
2017-12-09 00:15:00,9321.431
2017-12-09 00:30:00,9351.975
2017-12-09 00:45:00,8192.744
2017-12-09 01:00:00,7517.948
2017-12-09 01:15:00,7925.6669999999995
2017-12-09 01:30:00,8235.363000000001
2017-12-09 01:45:00,8057.784000000001
2017-12-09 02:00:00,8550.741
2017-12-09 02:15:00,8312.077
2017-12-09 02:30:00,7651.486
2017-12-09 02:45:00,7873.104
2017-12-09 03:00:00,7532.154
2017-12-09 03:15:00,7642.9619999999995
2017-12-09 03:30:00,7371.6230000000005
2017-12-09 03:45:00,7422.766
2017-12-09 04:00:00,7557.725
2017-12-09 04:15:00,7262.235
2017-12-09 04:30:00,7451.888000000001
2017-12-09 04:45:00,8420.044
2017-12-09 05:00:00,8642.372
2017-12-09 05:15:00,7658.59
2017-12-09 05:30:00,7422.766
2017-12-09 05:45:00,7329.004
2017-12-09 06:00:00,7530.733
2017-12-09 06:15:00,7161.37
2017-12-09 06:30:00,7280.703
2017-12-09 06:45:00,7267.2080000000005
2017-12-09 07:00:00,7868.842
2017-12-09 07:15:00,7875.945
2017-12-09 07:30:00,8407.259
2017-12-09 07:45:00,8586.258
2017-12-09 08:00:00,8786.565
2017-12-09 08:15:00,8844.812
2017-12-09 08:30:00,9374.705
2017-12-09 08:45:00,9829.304
2017-12-09 09:00:00,10183.04
2017-12-09 09:15:00,9890.391
2017-12-09 09:30:00,9478.41
2017-12-09 09:45:00,9947.216999999999
2017-12-09 10:00:00,10606.39
2017-12-09 10:15:00,10698.73
2017-12-09 10:30:00,10697.31
2017-12-09 10:45:00,10394.71
2017-12-09 11:00:00,9844.931999999999
2017-12-09 11:15:00,9805.154
2017-12-09 11:30:00,9677.296999999999
2017-12-09 11:45:00,9668.773000000001
2017-12-09 12:00:00,9727.02
2017-12-09 12:15:00,10349.25
2017-12-09 12:30:00,10612.07
2017-12-09 12:45:00,10778.28
2017-12-09 13:00:00,10384.77
2017-12-09 13:15:00,10531.09
2017-12-09 13:30:00,10586.5
2017-12-09 13:45:00,10539.62
2017-12-09 14:00:00,10052.34
2017-12-09 14:15:00,10335.05
2017-12-09 14:30:00,10199.38
2017-12-09 14:45:00,9816.519
2017-12-09 15:00:00,9888.971
2017-12-09 15:15:00,9942.955
2017-12-09 15:30:00,9977.05
2017-12-09 15:45:00,10364.88
2017-12-09 16:00:00,10458.64
2017-12-09 16:15:00,10376.25
2017-12-09 16:30:00,10120.53
2017-12-09 16:45:00,10337.89
2017-12-09 17:00:00,10329.36
2017-12-09 17:15:00,10130.48
2017-12-09 17:30:00,10177.36
2017-12-09 17:45:00,9738.384
2017-12-09 18:00:00,8979.771
2017-12-09 18:15:00,8759.573
2017-12-09 18:30:00,9981.312
2017-12-09 18:45:00,10076.49
2017-12-09 19:00:00,10379.09
2017-12-09 19:15:00,10322.26
2017-12-09 19:30:00,10474.27
2017-12-09 19:45:00,10053.76
2017-12-09 20:00:00,10212.87
2017-12-09 20:15:00,10440.17
2017-12-09 20:30:00,10258.33
2017-12-09 20:45:00,10624.85
2017-12-09 21:00:00,10353.52
2017-12-09 21:15:00,10624.85
2017-12-09 21:30:00,10335.05
2017-12-09 21:45:00,10468.59
2017-12-09 22:00:00,10135.45
2017-12-09 22:15:00,10180.2
2017-12-09 22:30:00,10407.5
2017-12-09 22:45:00,10207.19
2017-12-09 23:00:00,9793.789
2017-12-09 23:15:00,9586.377
2017-12-09 23:30:00,9484.091999999999
2017-12-09 23:45:00,10262.6
2017-12-10 00:00:00,9762.534
2017-12-10 00:15:00,9381.808
2017-12-10 00:30:00,9302.253
2017-12-10 00:45:00,9215.594000000001
2017-12-10 01:00:00,8603.305
2017-12-10 01:15:00,8743.947
2017-12-10 01:30:00,8718.375
2017-12-10 01:45:00,8918.684000000001
2017-12-10 02:00:00,8178.5380000000005
2017-12-10 02:15:00,7783.604
2017-12-10 02:30:00,6806.214
2017-12-10 02:45:00,6350.194
2017-12-10 03:00:00,7493.797
2017-12-10 03:15:00,7407.139
2017-12-10 03:30:00,7169.895
2017-12-10 03:45:00,7719.6759999999995
2017-12-10 04:00:00,8249.57
2017-12-10 04:15:00,7627.335
2017-12-10 04:30:00,7779.343000000001
2017-12-10 04:45:00,7370.201999999999
2017-12-10 05:00:00,7397.904
2017-12-10 05:15:00,7526.472
2017-12-10 05:30:00,6836.048000000001
2017-12-10 05:45:00,6310.416
2017-12-10 06:00:00,6578.914000000001
2017-12-10 06:15:00,6399.916
2017-12-10 06:30:00,6156.9890000000005
2017-12-10 06:45:00,6472.368
2017-12-10 07:00:00,7245.188
2017-12-10 07:15:00,7088.919
2017-12-10 07:30:00,6999.42
2017-12-10 07:45:00,7061.927
2017-12-10 08:00:00,7375.885
2017-12-10 08:15:00,7762.295
2017-12-10 08:30:00,8297.87
2017-12-10 08:45:00,8888.141
2017-12-10 09:00:00,9903.177
2017-12-10 09:15:00,9829.304
2017-12-10 09:30:00,9924.485999999999
2017-12-10 09:45:00,10249.81
2017-12-10 10:00:00,9663.091
2017-12-10 10:15:00,9929.459
2017-12-10 10:30:00,9346.292
2017-12-10 10:45:00,9333.506
2017-12-10 11:00:00,9462.783000000001
2017-12-10 11:15:00,9310.776
2017-12-10 11:30:00,10579.39
2017-12-10 11:45:00,10555.24
2017-12-10 12:00:00,10745.61
2017-12-10 12:15:00,10890.51
2017-12-10 12:30:00,10680.26
2017-12-10 12:45:00,10681.68
2017-12-10 13:00:00,10786.81
2017-12-10 13:15:00,10752.71
2017-12-10 13:30:00,10397.55
2017-12-10 13:45:00,10452.96
2017-12-10 14:00:00,10772.6
2017-12-10 14:15:00,10498.42
2017-12-10 14:30:00,10450.83
2017-12-10 14:45:00,10508.36
2017-12-10 15:00:00,10548.14
2017-12-10 15:15:00,10202.93
2017-12-10 15:30:00,10376.24
2017-12-10 15:45:00,10390.45
2017-12-10 16:00:00,10614.91
2017-12-10 16:15:00,10723.59
2017-12-10 16:30:00,10715.77
2017-12-10 16:45:00,10748.45
2017-12-10 17:00:00,10526.83
2017-12-10 17:15:00,10702.99
2017-12-10 17:30:00,11024.05
2017-12-10 17:45:00,10725.72
2017-12-10 18:00:00,10771.18
2017-12-10 18:15:00,10488.47
2017-12-10 18:30:00,10842.21
2017-12-10 18:45:00,10559.51
2017-12-10 19:00:00,10545.3
2017-12-10 19:15:00,10897.61
2017-12-10 19:30:00,10036.72
2017-12-10 19:45:00,9217.016
2017-12-10 20:00:00,10566.61
2017-12-10 20:15:00,10641.9
2017-12-10 20:30:00,11032.57
2017-12-10 20:45:00,11136.99
2017-12-10 21:00:00,10856.42
2017-12-10 21:15:00,10809.54
2017-12-10 21:30:00,10606.39
2017-12-10 21:45:00,10139.0
2017-12-10 22:00:00,10319.42
2017-12-10 22:15:00,9984.152
2017-12-10 22:30:00,10201.51
2017-12-10 22:45:00,9709.973
2017-12-10 23:00:00,9417.322
2017-12-10 23:15:00,9313.618
2017-12-10 23:30:00,9080.636
2017-12-10 23:45:00,9488.354
2017-12-11 00:00:00,9153.088
2017-12-11 00:15:00,8560.687
2017-12-11 00:30:00,8454.139000000001
2017-12-11 00:45:00,8123.134
2017-12-11 01:00:00,7654.328
2017-12-11 01:15:00,7816.9890000000005
2017-12-11 01:30:00,8361.8
2017-12-11 01:45:00,7341.79
2017-12-11 02:00:00,6705.351
2017-12-11 02:15:00,6863.039000000001
2017-12-11 02:30:00,6620.111999999999
2017-12-11 02:45:00,6287.687
2017-12-11 03:00:00,6456.74
2017-12-11 03:15:00,6260.694
2017-12-11 03:30:00,6279.1630000000005
2017-12-11 03:45:00,6408.439
2017-12-11 04:00:00,6191.084
2017-12-11 04:15:00,5639.880999999999
2017-12-11 04:30:00,6156.9890000000005
2017-12-11 04:45:00,6304.733
2017-12-11 05:00:00,6155.568
2017-12-11 05:15:00,6217.365
2017-12-11 05:30:00,6277.741999999999
2017-12-11 05:45:00,6455.32
2017-12-11 06:00:00,6730.920999999999
2017-12-11 06:15:00,6792.008000000001
2017-12-11 06:30:00,7198.307
2017-12-11 06:45:00,7034.935
2017-12-11 07:00:00,8215.475
2017-12-11 07:15:00,8765.256
2017-12-11 07:30:00,8691.384
2017-12-11 07:45:00,9457.101
2017-12-11 08:00:00,9746.908000000001
2017-12-11 08:15:00,10386.19
2017-12-11 08:30:00,10678.13
2017-12-11 08:45:00,9700.027
2017-12-11 09:00:00,9461.363000000001
2017-12-11 09:15:00,9349.133
2017-12-11 09:30:00,9572.171999999999
2017-12-11 09:45:00,8924.367
2017-12-11 10:00:00,8944.256
2017-12-11 10:15:00,9714.233
2017-12-11 10:30:00,10204.35
2017-12-11 10:45:00,10148.95
2017-12-11 11:00:00,9400.275
2017-12-11 11:15:00,9906.729
2017-12-11 11:30:00,9736.253
2017-12-11 11:45:00,9820.780999999999
2017-12-11 12:00:00,10127.63
2017-12-11 12:15:00,9647.464
2017-12-11 12:30:00,9028.071
2017-12-11 12:45:00,8327.703000000001
2017-12-11 13:00:00,9388.91
2017-12-11 13:15:00,10353.52
2017-12-11 13:30:00,9998.358
2017-12-11 13:45:00,9914.542
2017-12-11 14:00:00,10022.51
2017-12-11 14:15:00,10231.34
2017-12-11 14:30:00,10224.95
2017-12-11 14:45:00,10596.44
2017-12-11 15:00:00,10498.42
2017-12-11 15:15:00,10280.35
2017-12-11 15:30:00,9579.274
2017-12-11 15:45:00,9985.574
2017-12-11 16:00:00,10144.68
2017-12-11 16:15:00,9887.55
2017-12-11 16:30:00,10461.48
2017-12-11 16:45:00,9942.955
2017-12-11 17:00:00,9660.961
2017-12-11 17:15:00,9396.014000000001
2017-12-11 17:30:00,9960.002
2017-12-11 17:45:00,9636.1
2017-12-11 18:00:00,9883.287
2017-12-11 18:15:00,9613.369
2017-12-11 18:30:00,9231.222
2017-12-11 18:45:00,9197.126
2017-12-11 19:00:00,9900.336
2017-12-11 19:15:00,10019.67
2017-12-11 19:30:00,9738.385
2017-12-11 19:45:00,10050.92
2017-12-11 20:00:00,10343.57
2017-12-11 20:15:00,10424.55
2017-12-11 20:30:00,10136.16
2017-12-11 20:45:00,10340.73
2017-12-11 21:00:00,9552.282
2017-12-11 21:15:00,8849.073
2017-12-11 21:30:00,9276.681999999999
2017-12-11 21:45:00,10159.6
2017-12-11 22:00:00,9945.796
2017-12-11 22:15:00,10148.95
2017-12-11 22:30:00,10008.3
2017-12-11 22:45:00,9633.259
2017-12-11 23:00:00,9680.139000000001
2017-12-11 23:15:00,9859.136999999999
2017-12-11 23:30:00,9718.496
2017-12-11 23:45:00,9435.791
2017-12-12 00:00:00,8684.28
2017-12-12 00:15:00,8478.291
2017-12-12 00:30:00,8488.235
2017-12-12 00:45:00,8152.967
2017-12-12 01:00:00,8964.144
2017-12-12 01:15:00,7741.695
2017-12-12 01:30:00,7327.584
2017-12-12 01:45:00,7392.933000000001
2017-12-12 02:00:00,7213.224
2017-12-12 02:15:00,6796.27
2017-12-12 02:30:00,6561.866999999999
2017-12-12 02:45:00,6698.246999999999
2017-12-12 03:00:00,6473.078
2017-12-12 03:15:00,7036.355
2017-12-12 03:30:00,7015.045999999999
2017-12-12 03:45:00,6990.896
2017-12-12 04:00:00,6748.679
2017-12-12 04:15:00,6404.888000000001
2017-12-12 04:30:00,6496.519
2017-12-12 04:45:00,6664.151999999999
2017-12-12 05:00:00,6554.764
2017-12-12 05:15:00,6362.979
2017-12-12 05:30:00,6226.6
2017-12-12 05:45:00,5409.74
2017-12-12 06:00:00,5304.6140000000005
2017-12-12 06:15:00,7420.635
2017-12-12 06:30:00,7057.665
2017-12-12 06:45:00,7123.014
2017-12-12 07:00:00,7633.018
2017-12-12 07:15:00,8081.226
2017-12-12 07:30:00,8651.606
2017-12-12 07:45:00,9157.349
2017-12-12 08:00:00,10590.76
2017-12-12 08:15:00,10123.37
2017-12-12 08:30:00,10916.08
2017-12-12 08:45:00,10121.95
2017-12-12 09:00:00,10345.7
2017-12-12 09:15:00,9709.971
2017-12-12 09:30:00,10076.49
2017-12-12 09:45:00,9423.006
2017-12-12 10:00:00,10087.86
2017-12-12 10:15:00,9844.931
2017-12-12 10:30:00,9664.511999999999
2017-12-12 10:45:00,10158.89
2017-12-12 11:00:00,10309.48
2017-12-12 11:15:00,10370.56
2017-12-12 11:30:00,10268.28
2017-12-12 11:45:00,9913.121
2017-12-12 12:00:00,9910.28
2017-12-12 12:15:00,9935.851
2017-12-12 12:30:00,10347.83
2017-12-12 12:45:00,9869.081
2017-12-12 13:00:00,9736.254
2017-12-12 13:15:00,8844.812
2017-12-12 13:30:00,9164.452
2017-12-12 13:45:00,8738.265
2017-12-12 14:00:00,8797.931
2017-12-12 14:15:00,7027.831999999999
2017-12-12 14:30:00,6497.939
2017-12-12 14:45:00,7728.2
2017-12-12 15:00:00,8059.206
2017-12-12 15:15:00,8832.025
2017-12-12 15:30:00,8692.094000000001
2017-12-12 15:45:00,8334.806999999999
2017-12-12 16:00:00,8681.439
2017-12-12 16:15:00,8483.973
2017-12-12 16:30:00,9400.275
2017-12-12 16:45:00,9530.973
2017-12-12 17:00:00,9224.829
2017-12-12 17:15:00,9543.759
2017-12-12 17:30:00,9606.266
2017-12-12 17:45:00,9867.661
2017-12-12 18:00:00,10038.85
2017-12-12 18:15:00,9556.545
2017-12-12 18:30:00,9272.42
2017-12-12 18:45:00,9697.187
2017-12-12 19:00:00,9996.938
2017-12-12 19:15:00,10224.24
2017-12-12 19:30:00,10235.6
2017-12-12 19:45:00,10130.48
2017-12-12 20:00:00,10719.33
2017-12-12 20:15:00,10411.76
2017-12-12 20:30:00,10289.59
2017-12-12 20:45:00,10165.99
2017-12-12 21:00:00,10319.42
2017-12-12 21:15:00,10335.05
2017-12-12 21:30:00,9972.787
2017-12-12 21:45:00,10110.59
2017-12-12 22:00:00,10174.52
2017-12-12 22:15:00,10161.73
2017-12-12 22:30:00,9763.955
2017-12-12 22:45:00,8593.36
2017-12-12 23:00:00,8178.5380000000005
2017-12-12 23:15:00,9244.007
2017-12-12 23:30:00,9120.412
2017-12-12 23:45:00,9636.1
2017-12-13 00:00:00,9131.777
2017-12-13 00:15:00,8900.216
2017-12-13 00:30:00,8120.2919999999995
2017-12-13 00:45:00,8207.661
2017-12-13 01:00:00,8293.609
2017-12-13 01:15:00,8053.523
2017-12-13 01:30:00,8239.625
2017-12-13 01:45:00,7539.257
2017-12-13 02:00:00,6904.236
2017-12-13 02:15:00,6574.651999999999
2017-12-13 02:30:00,6959.642
2017-12-13 02:45:00,6715.294
2017-12-13 03:00:00,6335.988
2017-12-13 03:15:00,6587.438
2017-12-13 03:30:00,6788.456999999999
2017-12-13 03:45:00,6899.976
2017-12-13 04:00:00,8144.441999999999
2017-12-13 04:15:00,7748.089
2017-12-13 04:30:00,7617.392
2017-12-13 04:45:00,7428.448
2017-12-13 05:00:00,7505.871999999999
2017-12-13 05:15:00,7398.6140000000005
2017-12-13 05:30:00,8154.388000000001
2017-12-13 05:45:00,7861.7390000000005
2017-12-13 06:00:00,7827.644
2017-12-13 06:15:00,7377.306
2017-12-13 06:30:00,8135.919
2017-12-13 06:45:00,8032.214
2017-12-13 07:00:00,9538.786
2017-12-13 07:15:00,7756.611999999999
2017-12-13 07:30:00,8041.448
2017-12-13 07:45:00,9519.608
2017-12-13 08:00:00,10467.17
2017-12-13 08:15:00,10907.56
2017-12-13 08:30:00,9671.615
2017-12-13 08:45:00,9834.985999999999
2017-12-13 09:00:00,11071.64
2017-12-13 09:15:00,11130.6
2017-12-13 09:30:00,10489.9
2017-12-13 09:45:00,11403.36
2017-12-13 10:00:00,11906.26
2017-12-13 10:15:00,12139.24
2017-12-13 10:30:00,12741.59
2017-12-13 10:45:00,11794.03
2017-12-13 11:00:00,11426.8
2017-12-13 11:15:00,10712.93
2017-12-13 11:30:00,10876.31
2017-12-13 11:45:00,11193.1
2017-12-13 12:00:00,10602.12
2017-12-13 12:15:00,9989.835
2017-12-13 12:30:00,9702.869
2017-12-13 12:45:00,9506.822
2017-12-13 13:00:00,10697.31
2017-12-13 13:15:00,9825.042
2017-12-13 13:30:00,9694.345
2017-12-13 13:45:00,9668.774
2017-12-13 14:00:00,9701.448
2017-12-13 14:15:00,9316.459
2017-12-13 14:30:00,10299.53
2017-12-13 14:45:00,9712.813
2017-12-13 15:00:00,9428.688
2017-12-13 15:15:00,9187.181999999999
2017-12-13 15:30:00,8963.434000000001
2017-12-13 15:45:00,9180.079
2017-12-13 16:00:00,9238.324
2017-12-13 16:15:00,10305.21
2017-12-13 16:30:00,10014.7
2017-12-13 16:45:00,9781.004
2017-12-13 17:00:00,10194.41
2017-12-13 17:15:00,10315.87
2017-12-13 17:30:00,10802.43
2017-12-13 17:45:00,9799.472
2017-12-13 18:00:00,8357.537
2017-12-13 18:15:00,10093.54
2017-12-13 18:30:00,10832.27
2017-12-13 18:45:00,10840.79
2017-12-13 19:00:00,10056.6
2017-12-13 19:15:00,9611.949
2017-12-13 19:30:00,9322.142
2017-12-13 19:45:00,9435.792
2017-12-13 20:00:00,9647.464
2017-12-13 20:15:00,10148.95
2017-12-13 20:30:00,9935.851999999999
2017-12-13 20:45:00,10025.35
2017-12-13 21:00:00,10251.23
2017-12-13 21:15:00,10660.37
2017-12-13 21:30:00,10273.96
2017-12-13 21:45:00,9756.853000000001
2017-12-13 22:00:00,9658.119
2017-12-13 22:15:00,10034.58
2017-12-13 22:30:00,9678.719000000001
2017-12-13 22:45:00,9886.129
2017-12-13 23:00:00,9603.425
2017-12-13 23:15:00,9648.886
2017-12-13 23:30:00,9933.01
2017-12-13 23:45:00,9232.643
2017-12-14 00:00:00,9590.64
2017-12-14 00:15:00,8746.788
2017-12-14 00:30:00,8924.367
2017-12-14 00:45:00,9576.433
2017-12-14 01:00:00,8472.607
2017-12-14 01:15:00,8059.206
2017-12-14 01:30:00,7851.794
2017-12-14 01:45:00,7644.383000000001
2017-12-14 02:00:00,7006.522
2017-12-14 02:15:00,6861.619000000001
2017-12-14 02:30:00,5827.404
2017-12-14 02:45:00,6792.008000000001
2017-12-14 03:00:00,7250.87
2017-12-14 03:15:00,8211.923
2017-12-14 03:30:00,8223.288
2017-12-14 03:45:00,6929.809
2017-12-14 04:00:00,7132.9580000000005
2017-12-14 04:15:00,6965.3240000000005
2017-12-14 04:30:00,5847.2919999999995
2017-12-14 04:45:00,6183.98
2017-12-14 05:00:00,6183.98
2017-12-14 05:15:00,6510.724
2017-12-14 05:30:00,6635.7390000000005
2017-12-14 05:45:00,6469.526
2017-12-14 06:00:00,6737.314
2017-12-14 06:15:00,7625.915
2017-12-14 06:30:00,7767.978
2017-12-14 06:45:00,7337.528
2017-12-14 07:00:00,8442.773000000001
2017-12-14 07:15:00,8431.409
2017-12-14 07:30:00,9721.337
2017-12-14 07:45:00,9380.386999999999
2017-12-14 08:00:00,10622.01
2017-12-14 08:15:00,10622.01
2017-12-14 08:30:00,10154.63
2017-12-14 08:45:00,9653.146
2017-12-14 09:00:00,9664.511999999999
2017-12-14 09:15:00,9303.674
2017-12-14 09:30:00,9420.164
2017-12-14 09:45:00,8849.072
2017-12-14 10:00:00,10065.13
2017-12-14 10:15:00,9786.686
2017-12-14 10:30:00,9261.055
2017-12-14 10:45:00,8752.471
2017-12-14 11:00:00,8044.999
2017-12-14 11:15:00,8881.747
2017-12-14 11:30:00,8773.779
2017-12-14 11:45:00,7874.524
2017-12-14 12:00:00,7898.675
2017-12-14 12:15:00,7776.501
2017-12-14 12:30:00,8402.996
2017-12-14 12:45:00,8560.687
2017-12-14 13:00:00,9226.959
2017-12-14 13:15:00,8822.081
2017-12-14 13:30:00,8557.846
2017-12-14 13:45:00,8749.629
2017-12-14 14:00:00,9238.324
2017-12-14 14:15:00,8944.255
2017-12-14 14:30:00,8735.423
2017-12-14 14:45:00,8442.774
2017-12-14 15:00:00,8782.305
2017-12-14 15:15:00,8599.043
2017-12-14 15:30:00,9339.188
2017-12-14 15:45:00,9177.237
2017-12-14 16:00:00,9181.499
2017-12-14 16:15:00,9367.601999999999
2017-12-14 16:30:00,9459.942
2017-12-14 16:45:00,10295.27
2017-12-14 17:00:00,10130.48
2017-12-14 17:15:00,10381.93
2017-12-14 17:30:00,9556.544
2017-12-14 17:45:00,9834.987
2017-12-14 18:00:00,9465.624
2017-12-14 18:15:00,8866.12
2017-12-14 18:30:00,9344.871
2017-12-14 18:45:00,9709.973
2017-12-14 19:00:00,9670.194
2017-12-14 19:15:00,8707.011
2017-12-14 19:30:00,8228.261
2017-12-14 19:45:00,9168.714
2017-12-14 20:00:00,10312.32
2017-12-14 20:15:00,9918.805
2017-12-14 20:30:00,9833.565999999999
2017-12-14 20:45:00,10175.94
2017-12-14 21:00:00,10249.81
2017-12-14 21:15:00,9915.963
2017-12-14 21:30:00,9763.956
2017-12-14 21:45:00,9479.831
2017-12-14 22:00:00,9989.835
2017-12-14 22:15:00,9805.153
2017-12-14 22:30:00,9725.598
2017-12-14 22:45:00,9523.871
2017-12-14 23:00:00,9600.583
2017-12-14 23:15:00,9722.758
2017-12-14 23:30:00,9215.594000000001
2017-12-14 23:45:00,9038.017
2017-12-18 00:00:00,8425.017
2017-12-18 00:15:00,7550.621999999999
2017-12-18 00:30:00,7408.559
2017-12-18 00:45:00,7410.69
2017-12-18 01:00:00,7074.7119999999995
2017-12-18 01:15:00,6712.453
2017-12-18 01:30:00,6681.1990000000005
2017-12-18 01:45:00,6358.717
2017-12-18 02:00:00,6061.807
2017-12-18 02:15:00,6230.861
2017-12-18 02:30:00,6193.925
2017-12-18 02:45:00,6674.097
2017-12-18 03:00:00,6081.696
2017-12-18 03:15:00,5531.914000000001
2017-12-18 03:30:00,5762.055
2017-12-18 03:45:00,5928.268
2017-12-18 04:00:00,5416.843000000001
2017-12-18 04:15:00,5372.804
2017-12-18 04:30:00,5833.797
2017-12-18 04:45:00,5601.524
2017-12-18 05:00:00,5610.048000000001
2017-12-18 05:15:00,5691.023
2017-12-18 05:30:00,5801.8330000000005
2017-12-18 05:45:00,6195.346
2017-12-18 06:00:00,6124.314
2017-12-18 06:15:00,6293.369000000001
2017-12-18 06:30:00,6073.882
2017-12-18 06:45:00,7127.275
2017-12-18 07:00:00,6975.268
2017-12-18 07:15:00,7019.309
2017-12-18 07:30:00,7976.81
2017-12-18 07:45:00,8732.582
2017-12-18 08:00:00,9232.642
2017-12-18 08:15:00,9833.565999999999
2017-12-18 08:30:00,8905.188
2017-12-18 08:45:00,7346.052
2017-12-18 09:00:00,8657.289
2017-12-18 09:15:00,10075.07
2017-12-18 09:30:00,10407.5
2017-12-18 09:45:00,10413.18
2017-12-18 10:00:00,10693.04
2017-12-18 10:15:00,10812.38
2017-12-18 10:30:00,12234.42
2017-12-18 10:45:00,12267.1
2017-12-18 11:00:00,11721.58
2017-12-18 11:15:00,11975.87
2017-12-18 11:30:00,12362.99
2017-12-18 11:45:00,11434.61
2017-12-18 12:00:00,10658.95
2017-12-18 12:15:00,10660.37
2017-12-18 12:30:00,10918.92
2017-12-18 12:45:00,11214.41
2017-12-18 13:00:00,10232.76
2017-12-18 13:15:00,9261.054
2017-12-18 13:30:00,9503.98
2017-12-18 13:45:00,9930.169
2017-12-18 14:00:00,12595.26
2017-12-18 14:15:00,11886.37
2017-12-18 14:30:00,11532.63
2017-12-18 14:45:00,11299.65
2017-12-18 15:00:00,11639.18
2017-12-18 15:15:00,11923.3
2017-12-18 15:30:00,12644.98
2017-12-18 15:45:00,12917.74
2017-12-18 16:00:00,12889.33
2017-12-18 16:15:00,13358.14
2017-12-18 16:30:00,14098.28
2017-12-18 16:45:00,14542.94
2017-12-18 17:00:00,14081.24
2017-12-18 17:15:00,13397.91
2017-12-18 17:30:00,12841.03
2017-12-18 17:45:00,14359.68
2017-12-18 18:00:00,14258.81
2017-12-18 18:15:00,14192.04
2017-12-18 18:30:00,14513.11
2017-12-18 18:45:00,15135.34
2017-12-18 19:00:00,14595.5
2017-12-18 19:15:00,14010.2
2017-12-18 19:30:00,13843.28
2017-12-18 19:45:00,14889.57
2017-12-18 20:00:00,14636.7
2017-12-18 20:15:00,14643.8
2017-12-18 20:30:00,14203.41
2017-12-18 20:45:00,14109.65
2017-12-18 21:00:00,13369.5
2017-12-18 21:15:00,13096.74
2017-12-18 21:30:00,13843.99
2017-12-18 21:45:00,12995.88
2017-12-18 22:00:00,12305.45
2017-12-18 22:15:00,12510.02
2017-12-18 22:30:00,13544.24
2017-12-18 22:45:00,12710.33
2017-12-18 23:00:00,11640.6
2017-12-18 23:15:00,12136.4
2017-12-18 23:30:00,12578.21
2017-12-18 23:45:00,11982.97
2017-12-19 00:00:00,11296.81
2017-12-19 00:15:00,10751.29
2017-12-19 00:30:00,10742.77
2017-12-19 00:45:00,10673.16
2017-12-19 01:00:00,9674.456
2017-12-19 01:15:00,9084.896
2017-12-19 01:30:00,9050.802
2017-12-19 01:45:00,7863.159000000001
2017-12-19 02:00:00,8248.148000000001
2017-12-19 02:15:00,8317.76
2017-12-19 02:30:00,8084.776
2017-12-19 02:45:00,7829.064
2017-12-19 03:00:00,7833.326
2017-12-19 03:15:00,7735.303000000001
2017-12-19 03:30:00,7544.939
2017-12-19 03:45:00,7780.763000000001
2017-12-19 04:00:00,8645.924
2017-12-19 04:15:00,8133.078
2017-12-19 04:30:00,7623.073
2017-12-19 04:45:00,7568.38
2017-12-19 05:00:00,7606.736
2017-12-19 05:15:00,7549.201
2017-12-19 05:30:00,8106.085999999999
2017-12-19 05:45:00,8407.259
2017-12-19 06:00:00,9157.349
2017-12-19 06:15:00,8752.471
2017-12-19 06:30:00,8633.139000000001
2017-12-19 06:45:00,9051.513
2017-12-19 07:00:00,9364.76
2017-12-19 07:15:00,10984.27
2017-12-19 07:30:00,11597.98
2017-12-19 07:45:00,11862.22
2017-12-19 08:00:00,12814.75
2017-12-19 08:15:00,13863.88
2017-12-19 08:30:00,14780.18
2017-12-19 08:45:00,14864.0
2017-12-19 09:00:00,14711.99
2017-12-19 09:15:00,16337.19
2017-12-19 09:30:00,15378.27
2017-12-19 09:45:00,14983.33
2017-12-19 10:00:00,14804.33
2017-12-19 10:15:00,14927.93
2017-12-19 10:30:00,13581.17
2017-12-19 10:45:00,13856.78
2017-12-19 11:00:00,13594.67
2017-12-19 11:15:00,15273.14
2017-12-19 11:30:00,15257.51
2017-12-19 11:45:00,14689.26
2017-12-19 12:00:00,14551.46
2017-12-19 12:15:00,14233.24
2017-12-19 12:30:00,14515.95
2017-12-19 12:45:00,13831.21
2017-12-19 13:00:00,13636.58
2017-12-19 13:15:00,13500.2
2017-12-19 13:30:00,13878.09
2017-12-19 13:45:00,14432.13
2017-12-19 14:00:00,13328.3
2017-12-19 14:15:00,11582.35
2017-12-19 14:30:00,10981.43
2017-12-19 14:45:00,11661.91
2017-12-19 15:00:00,11568.15
2017-12-19 15:15:00,10862.1
2017-12-19 15:30:00,10910.4
2017-12-19 15:45:00,10984.27
2017-12-19 16:00:00,10995.64
2017-12-19 16:15:00,11562.47
2017-12-19 16:30:00,11139.12
2017-12-19 16:45:00,10954.44
2017-12-19 17:00:00,10758.39
2017-12-19 17:15:00,11755.67
2017-12-19 17:30:00,12373.64
2017-12-19 17:45:00,11517.01
2017-12-19 18:00:00,11933.96
2017-12-19 18:15:00,11720.16
2017-12-19 18:30:00,12687.6
2017-12-19 18:45:00,12098.04
2017-12-19 19:00:00,10497.71
2017-12-19 19:15:00,11731.52
2017-12-19 19:30:00,13142.2
2017-12-19 19:45:00,12839.61
2017-12-19 20:00:00,12500.08
2017-12-19 20:15:00,12809.78
2017-12-19 20:30:00,13738.86
2017-12-19 20:45:00,13250.17
2017-12-19 21:00:00,12518.55
2017-12-19 21:15:00,13441.95
2017-12-19 21:30:00,13292.79
2017-12-19 21:45:00,12328.18
2017-12-19 22:00:00,12271.36
2017-12-19 22:15:00,12949.0
2017-12-19 22:30:00,12265.68
2017-12-19 22:45:00,12234.42
2017-12-19 23:00:00,12636.46
2017-12-19 23:15:00,12071.05
2017-12-19 23:30:00,11356.48
2017-12-19 23:45:00,10962.96
2017-12-20 00:00:00,10283.9
2017-12-20 00:15:00,10451.54
2017-12-20 00:30:00,10437.33
2017-12-20 00:45:00,9503.981
2017-12-20 01:00:00,8840.55
2017-12-20 01:15:00,8476.87
2017-12-20 01:30:00,8147.284000000001
2017-12-20 01:45:00,7883.048000000001
2017-12-20 02:00:00,8561.396999999999
2017-12-20 02:15:00,8461.242
2017-12-20 02:30:00,7489.535
2017-12-20 02:45:00,7452.598000000001
2017-12-20 03:00:00,7162.791
2017-12-20 03:15:00,6582.465999999999
2017-12-20 03:30:00,5787.626
2017-12-20 03:45:00,5781.943
2017-12-20 04:00:00,6811.897
2017-12-20 04:15:00,7174.156
2017-12-20 04:30:00,7699.7880000000005
2017-12-20 04:45:00,7248.029
2017-12-20 05:00:00,7699.076999999999
2017-12-20 05:15:00,7829.064
2017-12-20 05:30:00,9221.276
2017-12-20 05:45:00,9361.919
2017-12-20 06:00:00,9548.021
2017-12-20 06:15:00,9417.323
2017-12-20 06:30:00,10825.16
2017-12-20 06:45:00,10397.55
2017-12-20 07:00:00,10258.33
2017-12-20 07:15:00,11038.26
2017-12-20 07:30:00,11852.28
2017-12-20 07:45:00,12951.13
2017-12-20 08:00:00,14322.74
2017-12-20 08:15:00,14842.69
2017-12-20 08:30:00,14380.99
2017-12-20 08:45:00,13906.5
2017-12-20 09:00:00,14101.13
2017-12-20 09:15:00,14442.07
2017-12-20 09:30:00,13801.37
2017-12-20 09:45:00,13346.77
2017-12-20 10:00:00,13638.0
2017-12-20 10:15:00,13876.67
2017-12-20 10:30:00,12997.3
2017-12-20 10:45:00,12164.81
2017-12-20 11:00:00,11876.43
2017-12-20 11:15:00,11028.31
2017-12-20 11:30:00,11312.44
2017-12-20 11:45:00,10819.48
2017-12-20 12:00:00,11292.55
2017-12-20 12:15:00,11046.07
2017-12-20 12:30:00,10775.44
2017-12-20 12:45:00,10899.04
2017-12-20 13:00:00,10452.96
2017-12-20 13:15:00,10560.21
2017-12-20 13:30:00,11430.35
2017-12-20 13:45:00,10829.42
2017-12-20 14:00:00,10955.15
2017-12-20 14:15:00,10434.49
2017-12-20 14:30:00,10847.89
2017-12-20 14:45:00,11078.03
2017-12-20 15:00:00,9701.448
2017-12-20 15:15:00,10121.95
2017-12-20 15:30:00,9687.952
2017-12-20 15:45:00,9980.601999999999
2017-12-20 16:00:00,11002.74
2017-12-20 16:15:00,10376.24
2017-12-20 16:30:00,9951.479
2017-12-20 16:45:00,10796.75
2017-12-20 17:00:00,10835.11
2017-12-20 17:15:00,12049.74
2017-12-20 17:30:00,11029.73
2017-12-20 17:45:00,10863.52
2017-12-20 18:00:00,10536.78
2017-12-20 18:15:00,10654.69
2017-12-20 18:30:00,11684.64
2017-12-20 18:45:00,11619.29
2017-12-20 19:00:00,11087.98
2017-12-20 19:15:00,11332.33
2017-12-20 19:30:00,11751.41
2017-12-20 19:45:00,10677.42
2017-12-20 20:00:00,11241.41
2017-12-20 20:15:00,11850.85
2017-12-20 20:30:00,12559.75
2017-12-20 20:45:00,12021.33
2017-12-20 21:00:00,12112.96
2017-12-20 21:15:00,11900.58
2017-12-20 21:30:00,12326.76
2017-12-20 21:45:00,12041.22
2017-12-20 22:00:00,11839.49
2017-12-20 22:15:00,11428.93
2017-12-20 22:30:00,11721.58
2017-12-20 22:45:00,11914.78
2017-12-20 23:00:00,11620.71
2017-12-20 23:15:00,10737.08
2017-12-20 23:30:00,11353.63
2017-12-20 23:45:00,10754.13
2017-12-21 00:00:00,10129.06
2017-12-21 00:15:00,10077.91
2017-12-21 00:30:00,9114.73
2017-12-21 00:45:00,9354.815
2017-12-21 01:00:00,10428.81
2017-12-21 01:15:00,9836.407
2017-12-21 01:30:00,8604.726
2017-12-21 01:45:00,9351.975
2017-12-21 02:00:00,9594.901
2017-12-21 02:15:00,9255.371
2017-12-21 02:30:00,8830.605
2017-12-21 02:45:00,8924.367
2017-12-21 03:00:00,8773.78
2017-12-21 03:15:00,9252.530999999999
2017-12-21 03:30:00,9367.601999999999
2017-12-21 03:45:00,8495.338
2017-12-21 04:00:00,7803.493
2017-12-21 04:15:00,6674.096
2017-12-21 04:30:00,7611.709
2017-12-21 04:45:00,7928.508000000001
2017-12-21 05:00:00,8421.465
2017-12-21 05:15:00,8074.1230000000005
2017-12-21 05:30:00,8496.758
2017-12-21 05:45:00,8073.411999999999
2017-12-21 06:00:00,8235.363000000001
2017-12-21 06:15:00,8776.621
2017-12-21 06:30:00,8577.734
2017-12-21 06:45:00,8528.011999999999
2017-12-21 07:00:00,8458.401
2017-12-21 07:15:00,8818.529
2017-12-21 07:30:00,9675.877
2017-12-21 07:45:00,11859.38
2017-12-21 08:00:00,11765.62
2017-12-21 08:15:00,11880.69
2017-12-21 08:30:00,12529.91
2017-12-21 08:45:00,12881.52
2017-12-21 09:00:00,12188.96
2017-12-21 09:15:00,11624.97
2017-12-21 09:30:00,11754.25
2017-12-21 09:45:00,12245.79
2017-12-21 10:00:00,11478.65
2017-12-21 10:15:00,12164.81
2017-12-21 10:30:00,11958.82
2017-12-21 10:45:00,12626.51
2017-12-21 11:00:00,12860.92
2017-12-21 11:15:00,12072.47
2017-12-21 11:30:00,11943.19
2017-12-21 11:45:00,11475.81
2017-12-21 12:00:00,11630.66
2017-12-21 12:15:00,11018.37
2017-12-21 12:30:00,9901.046
2017-12-21 12:45:00,9159.479
2017-12-21 13:00:00,9242.586
2017-12-21 13:15:00,10791.07
2017-12-21 13:30:00,10168.83
2017-12-21 13:45:00,10221.4
2017-12-21 14:00:00,10309.48
2017-12-21 14:15:00,10093.54
2017-12-21 14:30:00,10340.73
2017-12-21 14:45:00,9334.927
2017-12-21 15:00:00,8766.677
2017-12-21 15:15:00,9837.828000000001
2017-12-21 15:30:00,9472.726999999999
2017-12-21 15:45:00,9384.648000000001
2017-12-21 16:00:00,10667.47
2017-12-21 16:15:00,10732.82
2017-12-21 16:30:00,9914.541
2017-12-21 16:45:00,10495.58
2017-12-21 17:00:00,10190.14
2017-12-21 17:15:00,10663.21
2017-12-21 17:30:00,11553.94
2017-12-21 17:45:00,10992.8
2017-12-21 18:00:00,10217.13
2017-12-21 18:15:00,10016.83
2017-12-21 18:30:00,10673.16
2017-12-21 18:45:00,11899.15
2017-12-21 19:00:00,11524.11
2017-12-21 19:15:00,11079.45
2017-12-21 19:30:00,11208.73
2017-12-21 19:45:00,10766.92
2017-12-21 20:00:00,12510.02
2017-12-21 20:15:00,12108.7
2017-12-21 20:30:00,12183.28
2017-12-21 20:45:00,12373.64
2017-12-21 21:00:00,13629.48
2017-12-21 21:15:00,13045.6
2017-12-21 21:30:00,12751.53
2017-12-21 21:45:00,12566.85
2017-12-21 22:00:00,13069.75
2017-12-21 22:15:00,12735.9
2017-12-21 22:30:00,12431.89
2017-12-21 22:45:00,12127.88
2017-12-21 23:00:00,11875.0
2017-12-21 23:15:00,11340.85
2017-12-21 23:30:00,11399.1
2017-12-21 23:45:00,10921.77
2017-12-22 00:00:00,10910.4
2017-12-22 00:15:00,10630.54
2017-12-22 00:30:00,10275.38
2017-12-22 00:45:00,11119.23
2017-12-22 01:00:00,9944.375
2017-12-22 01:15:00,9424.426
2017-12-22 01:30:00,8317.76
2017-12-22 01:45:00,7918.563
2017-12-22 02:00:00,7586.137
2017-12-22 02:15:00,7196.887
2017-12-22 02:30:00,7583.295999999999
2017-12-22 02:45:00,7631.598000000001
2017-12-22 03:00:00,6942.595
2017-12-22 03:15:00,6128.576999999999
2017-12-22 03:30:00,6659.89
2017-12-22 03:45:00,6644.264
2017-12-22 04:00:00,6524.931
2017-12-22 04:15:00,6308.996
2017-12-22 04:30:00,6242.227
2017-12-22 04:45:00,6451.059
2017-12-22 05:00:00,6330.305
2017-12-22 05:15:00,6877.246
2017-12-22 05:30:00,7536.416
2017-12-22 05:45:00,7069.03
2017-12-22 06:00:00,6651.366
2017-12-22 06:15:00,6711.031999999999
2017-12-22 06:30:00,7267.9169999999995
2017-12-22 06:45:00,6152.727
2017-12-22 07:00:00,7694.105
2017-12-22 07:15:00,8401.576
2017-12-22 07:30:00,10092.12
2017-12-22 07:45:00,8674.336
2017-12-22 08:00:00,9309.355
2017-12-22 08:15:00,10497.0
2017-12-22 08:30:00,11261.29
2017-12-22 08:45:00,13146.46
2017-12-22 09:00:00,11345.11
2017-12-22 09:15:00,10765.5
2017-12-22 09:30:00,10562.35
2017-12-22 09:45:00,12313.98
2017-12-22 10:00:00,11630.66
2017-12-22 10:15:00,10747.03
2017-12-22 10:30:00,11404.78
2017-12-22 10:45:00,13189.08
2017-12-22 11:00:00,14821.38
2017-12-22 11:15:00,14984.04
2017-12-22 11:30:00,14765.98
2017-12-22 11:45:00,14044.3
2017-12-22 12:00:00,13684.88
2017-12-22 12:15:00,14288.65
2017-12-22 12:30:00,14099.7
2017-12-22 12:45:00,13686.3
2017-12-22 13:00:00,13322.62
2017-12-22 13:15:00,13670.67
2017-12-22 13:30:00,13572.65
2017-12-22 13:45:00,14005.94
2017-12-22 14:00:00,13392.23
2017-12-22 14:15:00,13336.83
2017-12-22 14:30:00,13306.99
2017-12-22 14:45:00,13996.0
2017-12-22 15:00:00,12963.2
2017-12-22 15:15:00,12956.1
2017-12-22 15:30:00,12137.82
2017-12-22 15:45:00,11420.4
2017-12-22 16:00:00,12291.25
2017-12-22 16:15:00,9974.208
2017-12-22 16:30:00,9543.759
2017-12-22 16:45:00,10908.98
2017-12-22 17:00:00,11238.56
2017-12-22 17:15:00,11835.23
2017-12-22 17:30:00,11812.5
2017-12-22 17:45:00,10762.66
2017-12-22 18:00:00,11350.79
2017-12-22 18:15:00,10724.3
2017-12-22 18:30:00,11727.26
2017-12-22 18:45:00,11252.77
2017-12-22 19:00:00,11784.08
2017-12-22 19:15:00,11100.76
2017-12-22 19:30:00,12382.17
2017-12-22 19:45:00,11931.83
2017-12-22 20:00:00,11710.21
2017-12-22 20:15:00,11407.62
2017-12-22 20:30:00,11965.92
2017-12-22 20:45:00,12132.14
2017-12-22 21:00:00,11835.23
2017-12-22 21:15:00,10819.48
2017-12-22 21:30:00,11291.13
2017-12-22 21:45:00,10792.49
2017-12-22 22:00:00,10568.03
2017-12-22 22:15:00,10461.48
2017-12-22 22:30:00,10886.25
2017-12-22 22:45:00,11809.66
2017-12-22 23:00:00,11058.15
2017-12-22 23:15:00,10603.54
2017-12-22 23:30:00,10332.21
2017-12-22 23:45:00,10411.76
2017-12-23 00:00:00,10470.01
2017-12-23 00:15:00,9606.266
2017-12-23 00:30:00,9019.549
2017-12-23 00:45:00,8167.173000000001
2017-12-23 01:00:00,7121.593000000001
2017-12-23 01:15:00,8013.746
2017-12-23 01:30:00,8562.107
2017-12-23 01:45:00,8256.673
2017-12-23 02:00:00,7196.8859999999995
2017-12-23 02:15:00,7553.463000000001
2017-12-23 02:30:00,7059.085
2017-12-23 02:45:00,6861.619000000001
2017-12-23 03:00:00,6919.8640000000005
2017-12-23 03:15:00,6792.008000000001
2017-12-23 03:30:00,6765.017
2017-12-23 03:45:00,7438.392
2017-12-23 04:00:00,6858.778
2017-12-23 04:15:00,6489.415
2017-12-23 04:30:00,6397.0740000000005
2017-12-23 04:45:00,6193.925
2017-12-23 05:00:00,6107.267
2017-12-23 05:15:00,6355.876
2017-12-23 05:30:00,6668.414000000001
2017-12-23 05:45:00,6814.736999999999
2017-12-23 06:00:00,6613.009
2017-12-23 06:15:00,6344.512
2017-12-23 06:30:00,7577.6140000000005
2017-12-23 06:45:00,6895.714
2017-12-23 07:00:00,7392.933000000001
2017-12-23 07:15:00,8629.586
2017-12-23 07:30:00,9324.271
2017-12-23 07:45:00,9915.962
2017-12-23 08:00:00,9540.918
2017-12-23 08:15:00,9779.582
2017-12-23 08:30:00,10724.3
2017-12-23 08:45:00,11639.18
2017-12-23 09:00:00,11629.24
2017-12-23 09:15:00,12372.22
2017-12-23 09:30:00,12200.33
2017-12-23 09:45:00,14118.17
2017-12-23 10:00:00,14265.92
2017-12-23 10:15:00,15258.93
2017-12-23 10:30:00,15250.41
2017-12-23 10:45:00,16847.19
2017-12-23 11:00:00,16527.55
2017-12-23 11:15:00,15949.36
2017-12-23 11:30:00,15732.0
2017-12-23 11:45:00,15481.97
2017-12-23 12:00:00,14757.45
2017-12-23 12:15:00,14230.4
2017-12-23 12:30:00,14241.77
2017-12-23 12:45:00,13585.44
2017-12-23 13:00:00,13190.5
2017-12-23 13:15:00,12900.7
2017-12-23 13:30:00,13403.6
2017-12-23 13:45:00,13424.91
2017-12-23 14:00:00,12774.26
2017-12-23 14:15:00,13611.01
2017-12-23 14:30:00,13125.15
2017-12-23 14:45:00,12441.83
2017-12-23 15:00:00,11813.92
2017-12-23 15:15:00,11537.61
2017-12-23 15:30:00,10462.9
2017-12-23 15:45:00,11225.78
2017-12-23 16:00:00,11218.68
2017-12-23 16:15:00,12429.05
2017-12-23 16:30:00,11992.92
2017-12-23 16:45:00,11772.72
2017-12-23 17:00:00,11903.42
2017-12-23 17:15:00,11443.13
2017-12-23 17:30:00,12558.33
2017-12-23 17:45:00,12072.47
2017-12-23 18:00:00,11671.14
2017-12-23 18:15:00,11471.55
2017-12-23 18:30:00,12208.85
2017-12-23 18:45:00,12098.04
2017-12-23 19:00:00,11007.0
2017-12-23 19:15:00,11643.44
2017-12-23 19:30:00,11575.25
2017-12-23 19:45:00,12267.1
2017-12-23 20:00:00,12050.45
2017-12-23 20:15:00,11920.46
2017-12-23 20:30:00,11589.46
2017-12-23 20:45:00,11995.76
2017-12-23 21:00:00,11674.7
2017-12-23 21:15:00,12095.2
2017-12-23 21:30:00,12051.16
2017-12-23 21:45:00,11477.23
2017-12-23 22:00:00,11333.75
2017-12-23 22:15:00,11607.93
2017-12-23 22:30:00,10725.72
2017-12-23 22:45:00,10806.7
2017-12-23 23:00:00,10822.32
2017-12-23 23:15:00,10862.1
2017-12-23 23:30:00,10786.81
2017-12-23 23:45:00,8493.917
2017-12-24 00:00:00,8164.331999999999
2017-12-24 00:15:00,9402.407
2017-12-24 00:30:00,9628.996
2017-12-24 00:45:00,10158.89
2017-12-24 01:00:00,8655.868
2017-12-24 01:15:00,8438.513
2017-12-24 01:30:00,8498.179
2017-12-24 01:45:00,8131.656999999999
2017-12-24 02:00:00,8032.214
2017-12-24 02:15:00,8060.626
2017-12-24 02:30:00,9381.806999999999
2017-12-24 02:45:00,9170.135
2017-12-24 03:00:00,8400.155999999999
2017-12-24 03:15:00,8647.344000000001
2017-12-24 03:30:00,8968.405999999999
2017-12-24 03:45:00,8752.471
2017-12-24 04:00:00,8765.256
2017-12-24 04:15:00,9049.381
2017-12-24 04:30:00,8489.654
2017-12-24 04:45:00,8671.495
2017-12-24 05:00:00,8275.141
2017-12-24 05:15:00,9924.485999999999
2017-12-24 05:30:00,9194.285
2017-12-24 05:45:00,7816.279
2017-12-24 06:00:00,8376.005
2017-12-24 06:15:00,8877.485
2017-12-24 06:30:00,8241.045
2017-12-24 06:45:00,9065.008
2017-12-24 07:00:00,8687.122
2017-12-24 07:15:00,7844.691
2017-12-24 07:30:00,8032.213000000001
2017-12-24 07:45:00,8630.296999999999
2017-12-24 08:00:00,8729.74
2017-12-24 08:15:00,8397.314
2017-12-24 08:30:00,7006.522
2017-12-24 08:45:00,8699.908000000001
2017-12-24 09:00:00,9050.802
2017-12-24 09:15:00,9043.698
2017-12-24 09:30:00,12225.9
2017-12-24 09:45:00,11668.3
2017-12-24 10:00:00,11762.78
2017-12-24 10:15:00,13459.0
2017-12-24 10:30:00,14317.06
2017-12-24 10:45:00,14907.33
2017-12-24 11:00:00,14413.66
2017-12-24 11:15:00,15322.86
2017-12-24 11:30:00,15061.47
2017-12-24 11:45:00,14541.52
2017-12-24 12:00:00,14949.24
2017-12-24 12:15:00,14131.67
2017-12-24 12:30:00,13703.35
2017-12-24 12:45:00,14352.57
2017-12-24 13:00:00,14126.69
2017-12-24 13:15:00,14244.61
2017-12-24 13:30:00,13819.84
2017-12-24 13:45:00,14379.57
2017-12-24 14:00:00,14601.18
2017-12-24 14:15:00,13728.92
2017-12-24 14:30:00,13385.13
2017-12-24 14:45:00,14368.2
2017-12-24 15:00:00,13730.34
2017-12-24 15:15:00,13474.63
2017-12-24 15:30:00,13926.39
2017-12-24 15:45:00,13521.51
2017-12-24 16:00:00,13426.33
2017-12-24 16:15:00,13483.15
2017-12-24 16:30:00,13635.16
2017-12-24 16:45:00,12518.55
2017-12-24 17:00:00,11198.79
2017-12-24 17:15:00,12569.69
2017-12-24 17:30:00,13318.36
2017-12-24 17:45:00,13343.93
2017-12-24 18:00:00,12184.7
2017-12-24 18:15:00,11281.18
2017-12-24 18:30:00,11930.41
2017-12-24 18:45:00,12600.94
2017-12-24 19:00:00,11617.87
2017-12-24 19:15:00,11116.39
2017-12-24 19:30:00,11320.25
2017-12-24 19:45:00,11704.53
2017-12-24 20:00:00,11377.79
2017-12-24 20:15:00,10809.54
2017-12-24 20:30:00,10943.07
2017-12-24 20:45:00,11144.8
2017-12-24 21:00:00,10987.11
2017-12-24 21:15:00,11542.58
2017-12-24 21:30:00,10471.43
2017-12-24 21:45:00,10349.25
2017-12-24 22:00:00,10431.65
2017-12-24 22:15:00,11534.05
2017-12-24 22:30:00,12309.72
2017-12-24 22:45:00,11338.01
2017-12-24 23:00:00,11654.81
2017-12-24 23:15:00,10856.42
2017-12-24 23:30:00,11539.74
2017-12-24 23:45:00,12492.98
2017-12-25 00:00:00,12332.45
2017-12-25 00:15:00,11767.04
2017-12-25 00:30:00,11850.86
2017-12-25 00:45:00,11134.86
2017-12-25 01:00:00,11443.13
2017-12-25 01:15:00,10918.92
2017-12-25 01:30:00,9461.363000000001
2017-12-25 01:45:00,9377.546
2017-12-25 02:00:00,9910.28
2017-12-25 02:15:00,9783.846
2017-12-25 02:30:00,9484.093
2017-12-25 02:45:00,9577.854
2017-12-25 03:00:00,9623.314
2017-12-25 03:15:00,8631.718
2017-12-25 03:30:00,8023.69
2017-12-25 03:45:00,7914.302
2017-12-25 04:00:00,7452.599
2017-12-25 04:15:00,7642.9619999999995
2017-12-25 04:30:00,7331.846
2017-12-25 04:45:00,6986.634
2017-12-25 05:00:00,6905.658
2017-12-25 05:15:00,6493.677
2017-12-25 05:30:00,7863.159000000001
2017-12-25 05:45:00,7914.302
2017-12-25 06:00:00,6995.158
2017-12-25 06:15:00,6855.937
2017-12-25 06:30:00,6556.895
2017-12-25 06:45:00,6794.85
2017-12-25 07:00:00,7303.433000000001
2017-12-25 07:15:00,7030.673000000001
2017-12-25 07:30:00,7213.934
2017-12-25 07:45:00,7617.392
2017-12-25 08:00:00,8256.671999999999
2017-12-25 08:15:00,10043.82
2017-12-25 08:30:00,9315.038
2017-12-25 08:45:00,9516.767
2017-12-25 09:00:00,10096.38
2017-12-25 09:15:00,10393.29
2017-12-25 09:30:00,12203.17
2017-12-25 09:45:00,11481.49
2017-12-25 10:00:00,10516.89
2017-12-25 10:15:00,11704.53
2017-12-25 10:30:00,11973.03
2017-12-25 10:45:00,12924.85
2017-12-25 11:00:00,11860.8
2017-12-25 11:15:00,11919.04
2017-12-25 11:30:00,13459.0
2017-12-25 11:45:00,12510.73
2017-12-25 12:00:00,11924.73
2017-12-25 12:15:00,11894.89
2017-12-25 12:30:00,13042.76
2017-12-25 12:45:00,12740.17
2017-12-25 13:00:00,12441.83
2017-12-25 13:15:00,12392.82
2017-12-25 13:30:00,13120.89
2017-12-25 13:45:00,12949.0
2017-12-25 14:00:00,12835.35
2017-12-25 14:15:00,13332.57
2017-12-25 14:30:00,12696.13
2017-12-25 14:45:00,12546.96
2017-12-25 15:00:00,12933.37
2017-12-25 15:15:00,13392.23
2017-12-25 15:30:00,13353.88
2017-12-25 15:45:00,13339.67
2017-12-25 16:00:00,12595.26
2017-12-25 16:15:00,12332.45
2017-12-25 16:30:00,12923.43
2017-12-25 16:45:00,12863.76
2017-12-25 17:00:00,12343.81
2017-12-25 17:15:00,11870.74
2017-12-25 17:30:00,12082.42
2017-12-25 17:45:00,12174.76
2017-12-25 18:00:00,12054.0
2017-12-25 18:15:00,11416.14
2017-12-25 18:30:00,10950.18
2017-12-25 18:45:00,10742.77
2017-12-25 19:00:00,12735.9
2017-12-25 19:15:00,12169.07
2017-12-25 19:30:00,12274.2
2017-12-25 19:45:00,12054.0
2017-12-25 20:00:00,13154.99
2017-12-25 20:15:00,13870.27
2017-12-25 20:30:00,13978.95
2017-12-25 20:45:00,12902.12
2017-12-25 21:00:00,12890.75
2017-12-25 21:15:00,12720.28
2017-12-25 21:30:00,13433.43
2017-12-25 21:45:00,13454.74
2017-12-25 22:00:00,13348.19
2017-12-25 22:15:00,12561.17
2017-12-25 22:30:00,12421.95
2017-12-25 22:45:00,12339.55
2017-12-25 23:00:00,13142.2
2017-12-25 23:15:00,12264.26
2017-12-25 23:30:00,11623.55
2017-12-25 23:45:00,11393.41
2017-12-26 00:00:00,11124.91
2017-12-26 00:15:00,12069.63
2017-12-26 00:30:00,11136.28
2017-12-26 00:45:00,11042.52
2017-12-26 01:00:00,9881.867
2017-12-26 01:15:00,8630.296999999999
2017-12-26 01:30:00,8672.916
2017-12-26 01:45:00,8714.114
2017-12-26 02:00:00,9376.125
2017-12-26 02:15:00,8214.054
2017-12-26 02:30:00,7512.265
2017-12-26 02:45:00,7313.3769999999995
2017-12-26 03:00:00,6267.797
2017-12-26 03:15:00,5767.738
2017-12-26 03:30:00,7161.371
2017-12-26 03:45:00,7505.161999999999
2017-12-26 04:00:00,7245.188
2017-12-26 04:15:00,8452.719000000001
2017-12-26 04:30:00,7405.008000000001
2017-12-26 04:45:00,7408.56
2017-12-26 05:00:00,7408.559
2017-12-26 05:15:00,6844.571
2017-12-26 05:30:00,7645.804
2017-12-26 05:45:00,7508.003000000001
2017-12-26 06:00:00,7130.116999999999
2017-12-26 06:15:00,7081.816
2017-12-26 06:30:00,7758.033
2017-12-26 06:45:00,7382.988
2017-12-26 07:00:00,7794.969
2017-12-26 07:15:00,8377.426
2017-12-26 07:30:00,8202.688
2017-12-26 07:45:00,8170.015
2017-12-26 08:00:00,8509.544
2017-12-26 08:15:00,8853.334
2017-12-26 08:30:00,8503.860999999999
2017-12-26 08:45:00,8690.674
2017-12-26 09:00:00,9685.821
2017-12-26 09:15:00,10977.17
2017-12-26 09:30:00,11012.69
2017-12-26 09:45:00,12471.67
2017-12-26 10:00:00,11946.04
2017-12-26 10:15:00,13000.14
2017-12-26 10:30:00,12510.02
2017-12-26 10:45:00,12353.75
2017-12-26 11:00:00,13051.28
2017-12-26 11:15:00,13842.57
2017-12-26 11:30:00,12592.42
2017-12-26 11:45:00,12346.65
2017-12-26 12:00:00,13376.6
2017-12-26 12:15:00,13002.98
2017-12-26 12:30:00,13321.2
2017-12-26 12:45:00,12983.09
2017-12-26 13:00:00,13237.38
2017-12-26 13:15:00,12918.45
2017-12-26 13:30:00,12852.4
2017-12-26 13:45:00,13828.36
2017-12-26 14:00:00,13721.82
2017-12-26 14:15:00,12949.0
2017-12-26 14:30:00,13285.69
2017-12-26 14:45:00,13284.26
2017-12-26 15:00:00,12963.2
2017-12-26 15:15:00,11917.62
2017-12-26 15:30:00,11810.37
2017-12-26 15:45:00,12909.22
2017-12-26 16:00:00,12892.17
2017-12-26 16:15:00,13004.4
2017-12-26 16:30:00,13261.53
2017-12-26 16:45:00,13686.3
2017-12-26 17:00:00,14991.86
2017-12-26 17:15:00,14015.89
2017-12-26 17:30:00,13670.67
2017-12-26 17:45:00,12993.04
2017-12-26 18:00:00,14547.2
2017-12-26 18:15:00,14622.49
2017-12-26 18:30:00,13906.5
2017-12-26 18:45:00,12564.01
2017-12-26 19:00:00,12360.86
2017-12-26 19:15:00,13122.31
2017-12-26 19:30:00,13000.14
2017-12-26 19:45:00,13083.96
2017-12-26 20:00:00,11984.39
2017-12-26 20:15:00,11894.89
2017-12-26 20:30:00,13226.02
2017-12-26 20:45:00,12855.24
2017-12-26 21:00:00,13078.27
2017-12-26 21:15:00,12869.44
2017-12-26 21:30:00,13116.63
2017-12-26 21:45:00,11904.84
2017-12-26 22:00:00,11187.42
2017-12-26 22:15:00,10994.22
2017-12-26 22:30:00,11555.37
2017-12-26 22:45:00,11644.86
2017-12-26 23:00:00,11441.71
2017-12-26 23:15:00,11186.0
2017-12-26 23:30:00,10897.61
2017-12-26 23:45:00,10627.7
2017-12-27 00:00:00,9896.074
2017-12-27 00:15:00,10106.33
2017-12-27 00:30:00,9515.347
2017-12-27 00:45:00,9084.896999999999
2017-12-27 01:00:00,9182.92
2017-12-27 01:15:00,9038.017
2017-12-27 01:30:00,8380.267
2017-12-27 01:45:00,8924.366
2017-12-27 02:00:00,8566.369
2017-12-27 02:15:00,7657.169
2017-12-27 02:30:00,7374.465
2017-12-27 02:45:00,7629.467
2017-12-27 03:00:00,6718.135
2017-12-27 03:15:00,6912.7609999999995
2017-12-27 03:30:00,7385.829000000001
2017-12-27 03:45:00,7588.979
2017-12-27 04:00:00,6905.656999999999
2017-12-27 04:15:00,7665.691999999999
2017-12-27 04:30:00,7064.768
2017-12-27 04:45:00,6297.630999999999
2017-12-27 05:00:00,6855.226
2017-12-27 05:15:00,7024.99
2017-12-27 05:30:00,7662.852
2017-12-27 05:45:00,7999.539000000001
2017-12-27 06:00:00,7817.7
2017-12-27 06:15:00,7320.481
2017-12-27 06:30:00,7672.795999999999
2017-12-27 06:45:00,7355.996999999999
2017-12-27 07:00:00,8397.314
2017-12-27 07:15:00,8689.963
2017-12-27 07:30:00,8924.366
2017-12-27 07:45:00,9425.848
2017-12-27 08:00:00,9441.473
2017-12-27 08:15:00,9619.053
2017-12-27 08:30:00,10131.9
2017-12-27 08:45:00,10356.36
2017-12-27 09:00:00,9687.241
2017-12-27 09:15:00,9817.938
2017-12-27 09:30:00,11014.11
2017-12-27 09:45:00,11350.79
2017-12-27 10:00:00,12218.79
2017-12-27 10:15:00,13254.43
2017-12-27 10:30:00,13876.66
2017-12-27 10:45:00,14345.47
2017-12-27 11:00:00,15128.24
2017-12-27 11:15:00,14365.36
2017-12-27 11:30:00,14351.15
2017-12-27 11:45:00,14351.15
2017-12-27 12:00:00,13940.59
2017-12-27 12:15:00,13291.37
2017-12-27 12:30:00,13214.65
2017-12-27 12:45:00,13639.42
2017-12-27 13:00:00,13639.42
2017-12-27 13:15:00,12845.29
2017-12-27 13:30:00,12467.4
2017-12-27 13:45:00,12850.97
2017-12-27 14:00:00,13227.44
2017-12-27 14:15:00,11741.47
2017-12-27 14:30:00,11113.55
2017-12-27 14:45:00,11441.71
2017-12-27 15:00:00,11255.61
2017-12-27 15:15:00,10491.31
2017-12-27 15:30:00,10583.66
2017-12-27 15:45:00,10099.22
2017-12-27 16:00:00,10808.12
2017-12-27 16:15:00,11478.65
2017-12-27 16:30:00,10739.93
2017-12-27 16:45:00,11109.29
2017-12-27 17:00:00,11210.15
2017-12-27 17:15:00,10999.9
2017-12-27 17:30:00,11259.87
2017-12-27 17:45:00,10616.33
2017-12-27 18:00:00,10587.92
2017-12-27 18:15:00,10884.83
2017-12-27 18:30:00,12098.04
2017-12-27 18:45:00,12966.04
2017-12-27 19:00:00,12342.39
2017-12-27 19:15:00,12593.84
2017-12-27 19:30:00,14581.29
2017-12-27 19:45:00,14345.47
2017-12-27 20:00:00,15457.82
2017-12-27 20:15:00,14922.25
2017-12-27 20:30:00,15518.91
2017-12-27 20:45:00,14393.77
2017-12-27 21:00:00,13794.27
2017-12-27 21:15:00,12978.83
2017-12-27 21:30:00,14332.69
2017-12-27 21:45:00,13427.75
2017-12-27 22:00:00,13118.05
2017-12-27 22:15:00,12609.47
2017-12-27 22:30:00,13159.25
2017-12-27 22:45:00,13564.13
2017-12-27 23:00:00,13309.84
2017-12-27 23:15:00,12467.4
2017-12-27 23:30:00,12286.99
2017-12-27 23:45:00,11016.95
2017-12-28 00:00:00,11461.6
2017-12-28 00:15:00,10941.65
2017-12-28 00:30:00,9688.663
2017-12-28 00:45:00,9600.584
2017-12-28 01:00:00,9019.548
2017-12-28 01:15:00,8922.945
2017-12-28 01:30:00,8985.453000000001
2017-12-28 01:45:00,9141.722
2017-12-28 02:00:00,6445.376
2017-12-28 02:15:00,6284.845
2017-12-28 02:30:00,7505.161
2017-12-28 02:45:00,7740.985
2017-12-28 03:00:00,7299.172
2017-12-28 03:15:00,6884.348000000001
2017-12-28 03:30:00,7540.677
2017-12-28 03:45:00,7633.019
2017-12-28 04:00:00,6953.959
2017-12-28 04:15:00,7942.715
2017-12-28 04:30:00,7684.161
2017-12-28 04:45:00,6968.166
2017-12-28 05:00:00,7660.01
2017-12-28 05:15:00,7554.884
2017-12-28 05:30:00,7800.651999999999
2017-12-28 05:45:00,7252.29
2017-12-28 06:00:00,8079.094
2017-12-28 06:15:00,8626.035
2017-12-28 06:30:00,8112.479
2017-12-28 06:45:00,8694.226
2017-12-28 07:00:00,9566.489
2017-12-28 07:15:00,9651.726999999999
2017-12-28 07:30:00,9170.135
2017-12-28 07:45:00,9974.208
2017-12-28 08:00:00,10007.59
2017-12-28 08:15:00,10958.7
2017-12-28 08:30:00,10640.48
2017-12-28 08:45:00,12140.66
2017-12-28 09:00:00,11859.38
2017-12-28 09:15:00,12225.9
2017-12-28 09:30:00,11897.73
2017-12-28 09:45:00,11696.0
2017-12-28 10:00:00,14044.3
2017-12-28 10:15:00,12990.2
2017-12-28 10:30:00,12021.33
2017-12-28 10:45:00,12817.59
2017-12-28 11:00:00,14031.51
2017-12-28 11:15:00,14218.33
2017-12-28 11:30:00,13962.61
2017-12-28 11:45:00,13250.17
2017-12-28 12:00:00,13441.95
2017-12-28 12:15:00,12598.1
2017-12-28 12:30:00,11768.46
2017-12-28 12:45:00,11394.83
2017-12-28 13:00:00,12440.41
2017-12-28 13:15:00,11389.15
2017-12-28 13:30:00,10512.63
2017-12-28 13:45:00,11734.36
2017-12-28 14:00:00,12687.6
2017-12-28 14:15:00,12095.2
2017-12-28 14:30:00,10891.93
2017-12-28 14:45:00,10447.28
2017-12-28 15:00:00,10018.25
2017-12-28 15:15:00,10810.96
2017-12-28 15:30:00,10937.39
2017-12-28 15:45:00,11114.97
2017-12-28 16:00:00,9914.542
2017-12-28 16:15:00,10842.21
2017-12-28 16:30:00,10917.5
2017-12-28 16:45:00,11099.34
2017-12-28 17:00:00,11029.73
2017-12-28 17:15:00,11325.22
2017-12-28 17:30:00,11751.41
2017-12-28 17:45:00,12946.16
2017-12-28 18:00:00,12868.02
2017-12-28 18:15:00,12436.15
2017-12-28 18:30:00,14189.2
2017-12-28 18:45:00,14585.56
2017-12-28 19:00:00,14399.46
2017-12-28 19:15:00,12161.97
2017-12-28 19:30:00,13189.08
2017-12-28 19:45:00,14371.04
2017-12-28 20:00:00,15213.47
2017-12-28 20:15:00,14313.51
2017-12-28 20:30:00,14662.27
2017-12-28 20:45:00,14814.28
2017-12-28 21:00:00,14930.06
2017-12-28 21:15:00,13804.21
2017-12-28 21:30:00,13748.81
2017-12-28 21:45:00,14498.9
2017-12-28 22:00:00,13684.88
2017-12-28 22:15:00,13603.91
2017-12-28 22:30:00,12670.55
2017-12-28 22:45:00,12213.11
2017-12-28 23:00:00,13012.92
2017-12-28 23:15:00,11382.76
2017-12-28 23:30:00,10563.77
2017-12-28 23:45:00,10069.39
2017-12-29 00:00:00,10357.78
2017-12-29 00:15:00,10121.95
2017-12-29 00:30:00,9467.045
2017-12-29 00:45:00,8765.257
2017-12-29 01:00:00,8253.832
2017-12-29 01:15:00,8563.527
2017-12-29 01:30:00,9733.412
2017-12-29 01:45:00,8925.787
2017-12-29 02:00:00,8080.515
2017-12-29 02:15:00,7607.446999999999
2017-12-29 02:30:00,7273.601
2017-12-29 02:45:00,6978.11
2017-12-29 03:00:00,7219.616
2017-12-29 03:15:00,7553.463000000001
2017-12-29 03:30:00,7250.87
2017-12-29 03:45:00,5837.348000000001
2017-12-29 04:00:00,6578.914000000001
2017-12-29 04:15:00,6865.88
2017-12-29 04:30:00,6791.298000000001
2017-12-29 04:45:00,6823.262
2017-12-29 05:00:00,6790.5869999999995
2017-12-29 05:15:00,6804.794
2017-12-29 05:30:00,8084.776999999999
2017-12-29 05:45:00,8373.163
2017-12-29 06:00:00,7723.938
2017-12-29 06:15:00,7161.371
2017-12-29 06:30:00,6584.597
2017-12-29 06:45:00,7225.299
2017-12-29 07:00:00,7286.385
2017-12-29 07:15:00,7736.724
2017-12-29 07:30:00,8481.131
2017-12-29 07:45:00,9670.193000000001
2017-12-29 08:00:00,9181.499
2017-12-29 08:15:00,8506.703000000001
2017-12-29 08:30:00,8776.621
2017-12-29 08:45:00,8952.778
2017-12-29 09:00:00,9839.249
2017-12-29 09:15:00,10872.04
2017-12-29 09:30:00,10978.59
2017-12-29 09:45:00,10649.0
2017-12-29 10:00:00,12710.33
2017-12-29 10:15:00,12412.0
2017-12-29 10:30:00,12208.85
2017-12-29 10:45:00,13157.83
2017-12-29 11:00:00,14132.38
2017-12-29 11:15:00,13994.58
2017-12-29 11:30:00,13798.53
2017-12-29 11:45:00,12609.47
2017-12-29 12:00:00,12697.55
2017-12-29 12:15:00,12511.44
2017-12-29 12:30:00,11299.65
2017-12-29 12:45:00,12467.41
2017-12-29 13:00:00,12683.34
2017-12-29 13:15:00,12220.22
2017-12-29 13:30:00,11916.2
2017-12-29 13:45:00,13592.54
2017-12-29 14:00:00,12984.51
2017-12-29 14:15:00,12626.52
2017-12-29 14:30:00,12321.08
2017-12-29 14:45:00,12983.09
2017-12-29 15:00:00,13110.24
2017-12-29 15:15:00,12733.06
2017-12-29 15:30:00,12660.61
2017-12-29 15:45:00,12764.32
2017-12-29 16:00:00,13044.18
2017-12-29 16:15:00,12941.89
2017-12-29 16:30:00,12804.09
2017-12-29 16:45:00,13348.19
2017-12-29 17:00:00,14251.71
2017-12-29 17:15:00,14132.38
2017-12-29 17:30:00,14129.54
2017-12-29 17:45:00,13544.24
2017-12-29 18:00:00,13549.92
2017-12-29 18:15:00,14561.41
2017-12-29 18:30:00,13053.41
2017-12-29 18:45:00,12323.92
2017-12-29 19:00:00,12507.18
2017-12-29 19:15:00,12869.44
2017-12-29 19:30:00,13613.85
2017-12-29 19:45:00,12923.42
2017-12-29 20:00:00,11992.21
2017-12-29 20:15:00,12997.3
2017-12-29 20:30:00,11562.47
2017-12-29 20:45:00,10944.49
2017-12-29 21:00:00,10923.19
2017-12-29 21:15:00,12627.22
2017-12-29 21:30:00,12015.65
2017-12-29 21:45:00,11132.02
2017-12-29 22:00:00,11518.43
2017-12-29 22:15:00,11924.73
2017-12-29 22:30:00,11194.53
2017-12-29 22:45:00,10762.65
2017-12-29 23:00:00,10559.51
2017-12-29 23:15:00,10127.64
2017-12-29 23:30:00,11214.41
2017-12-29 23:45:00,10714.35
2017-12-30 00:00:00,10180.2
2017-12-30 00:15:00,9251.109
2017-12-30 00:30:00,9768.218
2017-12-30 00:45:00,10276.8
2017-12-30 01:00:00,9937.271
2017-12-30 01:15:00,9050.802
2017-12-30 01:30:00,8444.195
2017-12-30 01:45:00,8259.514000000001
2017-12-30 02:00:00,7806.335
2017-12-30 02:15:00,9039.437
2017-12-30 02:30:00,8365.351
2017-12-30 02:45:00,7366.65
2017-12-30 03:00:00,7267.9169999999995
2017-12-30 03:15:00,7583.295999999999
2017-12-30 03:30:00,7027.831999999999
2017-12-30 03:45:00,7358.1269999999995
2017-12-30 04:00:00,7118.751
2017-12-30 04:15:00,7063.348000000001
2017-12-30 04:30:00,7989.595
2017-12-30 04:45:00,7287.806
2017-12-30 05:00:00,6576.073
2017-12-30 05:15:00,5751.4
2017-12-30 05:30:00,6141.361999999999
2017-12-30 05:45:00,7006.522
2017-12-30 06:00:00,7123.014
2017-12-30 06:15:00,7037.066
2017-12-30 06:30:00,7110.229
2017-12-30 06:45:00,7113.069
2017-12-30 07:00:00,8111.769
2017-12-30 07:15:00,8264.485999999999
2017-12-30 07:30:00,7591.82
2017-12-30 07:45:00,7131.5380000000005
2017-12-30 08:00:00,7130.116999999999
2017-12-30 08:15:00,7762.295
2017-12-30 08:30:00,8661.551
2017-12-30 08:45:00,8684.280999999999
2017-12-30 09:00:00,10511.21
2017-12-30 09:15:00,10897.61
2017-12-30 09:30:00,12048.32
2017-12-30 09:45:00,12247.21
2017-12-30 10:00:00,14018.02
2017-12-30 10:15:00,14613.97
2017-12-30 10:30:00,14390.93
2017-12-30 10:45:00,15004.64
2017-12-30 11:00:00,15558.69
2017-12-30 11:15:00,16111.31
2017-12-30 11:30:00,16136.88
2017-12-30 11:45:00,16712.23
2017-12-30 12:00:00,16122.67
2017-12-30 12:15:00,16524.71
2017-12-30 12:30:00,16188.02
2017-12-30 12:45:00,15993.4
2017-12-30 13:00:00,16010.44
2017-12-30 13:15:00,16386.91
2017-12-30 13:30:00,15660.97
2017-12-30 13:45:00,14868.26
2017-12-30 14:00:00,14470.49
2017-12-30 14:15:00,13946.28
2017-12-30 14:30:00,13220.34
2017-12-30 14:45:00,13204.71
2017-12-30 15:00:00,13663.57
2017-12-30 15:15:00,12920.58
2017-12-30 15:30:00,12349.49
2017-12-30 15:45:00,12030.56
2017-12-30 16:00:00,12838.19
2017-12-30 16:15:00,11714.47
2017-12-30 16:30:00,11764.2
2017-12-30 16:45:00,12182.57
2017-12-30 17:00:00,13113.79
2017-12-30 17:15:00,12974.57
2017-12-30 17:30:00,11973.03
2017-12-30 17:45:00,12204.59
2017-12-30 18:00:00,12838.19
2017-12-30 18:15:00,12544.12
2017-12-30 18:30:00,12251.47
2017-12-30 18:45:00,11933.25
2017-12-30 19:00:00,12055.42
2017-12-30 19:15:00,13042.76
2017-12-30 19:30:00,11903.42
2017-12-30 19:45:00,11498.54
2017-12-30 20:00:00,12424.79
2017-12-30 20:15:00,13191.92
2017-12-30 20:30:00,12236.55
2017-12-30 20:45:00,12427.63
2017-12-30 21:00:00,11143.38
2017-12-30 21:15:00,11802.55
2017-12-30 21:30:00,11791.19
2017-12-30 21:45:00,11846.59
2017-12-30 22:00:00,10837.95
2017-12-30 22:15:00,10184.46
2017-12-30 22:30:00,9896.074
2017-12-30 22:45:00,11070.93
2017-12-30 23:00:00,10347.83
2017-12-30 23:15:00,10386.19
2017-12-30 23:30:00,11293.97
2017-12-30 23:45:00,10776.86
2017-12-31 00:00:00,10116.27
2017-12-31 00:15:00,9779.582
2017-12-31 00:30:00,8969.115
2017-12-31 00:45:00,8978.351
2017-12-31 01:00:00,9863.398000000001
2017-12-31 01:15:00,10045.24
2017-12-31 01:30:00,9165.872
2017-12-31 01:45:00,8853.334
2017-12-31 02:00:00,8689.963
2017-12-31 02:15:00,8198.427
2017-12-31 02:30:00,8005.222
2017-12-31 02:45:00,8604.726
2017-12-31 03:00:00,8669.364
2017-12-31 03:15:00,7667.113
2017-12-31 03:30:00,7910.04
2017-12-31 03:45:00,7476.75
2017-12-31 04:00:00,7417.0830000000005
2017-12-31 04:15:00,7399.325
2017-12-31 04:30:00,7642.9619999999995
2017-12-31 04:45:00,7955.5
2017-12-31 05:00:00,7924.956
2017-12-31 05:15:00,8746.788
2017-12-31 05:30:00,8559.266
2017-12-31 05:45:00,8647.345
2017-12-31 06:00:00,8135.92
2017-12-31 06:15:00,8854.756
2017-12-31 06:30:00,8108.928000000001
2017-12-31 06:45:00,7556.304
2017-12-31 07:00:00,7283.545
2017-12-31 07:15:00,8452.719000000001
2017-12-31 07:30:00,8353.274
2017-12-31 07:45:00,8547.9
2017-12-31 08:00:00,9542.338
2017-12-31 08:15:00,10602.12
2017-12-31 08:30:00,10185.88
2017-12-31 08:45:00,12081.0
2017-12-31 09:00:00,12387.85
2017-12-31 09:15:00,12792.73
2017-12-31 09:30:00,14572.77
2017-12-31 09:45:00,14565.67
2017-12-31 10:00:00,14835.59
2017-12-31 10:15:00,14399.46
2017-12-31 10:30:00,15598.46
2017-12-31 10:45:00,14952.08
2017-12-31 11:00:00,15479.13
2017-12-31 11:15:00,15479.13
2017-12-31 11:30:00,15709.27
2017-12-31 11:45:00,15104.09
2017-12-31 12:00:00,15578.57
2017-12-31 12:15:00,14963.44
2017-12-31 12:30:00,14781.6
2017-12-31 12:45:00,14935.03
2017-12-31 13:00:00,14959.18
2017-12-31 13:15:00,13510.14
2017-12-31 13:30:00,13218.21
2017-12-31 13:45:00,13250.17
2017-12-31 14:00:00,12860.92
2017-12-31 14:15:00,12447.52
2017-12-31 14:30:00,12390.69
2017-12-31 14:45:00,12424.79
2017-12-31 15:00:00,11995.76
2017-12-31 15:15:00,10505.52
2017-12-31 15:30:00,10783.96
2017-12-31 15:45:00,12224.48
2017-12-31 16:00:00,12610.89
2017-12-31 16:15:00,12230.16
2017-12-31 16:30:00,13373.05
2017-12-31 16:45:00,14025.83
2017-12-31 17:00:00,13201.87
2017-12-31 17:15:00,13687.72
2017-12-31 17:30:00,14253.13
2017-12-31 17:45:00,14163.63
2017-12-31 18:00:00,13643.68
2017-12-31 18:15:00,13375.18
2017-12-31 18:30:00,13717.56
2017-12-31 18:45:00,13741.71
2017-12-31 19:00:00,12822.56
2017-12-31 19:15:00,12975.99
2017-12-31 19:30:00,13697.67
2017-12-31 19:45:00,13462.55
2017-12-31 20:00:00,12319.66
2017-12-31 20:15:00,11808.24
2017-12-31 20:30:00,12031.27
2017-12-31 20:45:00,11741.46
2017-12-31 21:00:00,11566.73
2017-12-31 21:15:00,10622.01
2017-12-31 21:30:00,11445.97
2017-12-31 21:45:00,11812.5
2017-12-31 22:00:00,10835.11
2017-12-31 22:15:00,10572.29
2017-12-31 22:30:00,9727.02
2017-12-31 22:45:00,10401.82
2017-12-31 23:00:00,10264.02
2017-12-31 23:15:00,10991.38
2017-12-31 23:30:00,10624.85
2017-12-31 23:45:00,9165.873
2018-01-01 00:00:00,8252.41
2018-01-01 00:15:00,8951.358
2018-01-01 00:30:00,9434.37
2018-01-01 00:45:00,9964.264000000001
2018-01-01 01:00:00,9073.530999999999
2018-01-01 01:15:00,10086.44
2018-01-01 01:30:00,9617.631
2018-01-01 01:45:00,9261.054
2018-01-01 02:00:00,9097.681999999999
2018-01-01 02:15:00,9879.027
2018-01-01 02:30:00,10001.2
2018-01-01 02:45:00,9214.174
2018-01-01 03:00:00,9182.92
2018-01-01 03:15:00,9113.31
2018-01-01 03:30:00,8874.645
2018-01-01 03:45:00,9303.673
2018-01-01 04:00:00,8832.025
2018-01-01 04:15:00,9087.738000000001
2018-01-01 04:30:00,9742.646
2018-01-01 04:45:00,9719.917
2018-01-01 05:00:00,9359.077
2018-01-01 05:15:00,9209.911
2018-01-01 05:30:00,9506.823
2018-01-01 05:45:00,9904.598
2018-01-01 06:00:00,8758.153
2018-01-01 06:15:00,7937.031999999999
2018-01-01 06:30:00,8070.57
2018-01-01 06:45:00,8374.584
2018-01-01 07:00:00,8904.478000000001
2018-01-01 07:15:00,8989.715
2018-01-01 07:30:00,8144.443
2018-01-01 07:45:00,8591.94
2018-01-01 08:00:00,8762.415
2018-01-01 08:15:00,8008.063
2018-01-01 08:30:00,7694.104
2018-01-01 08:45:00,8245.308
2018-01-01 09:00:00,8911.581
2018-01-01 09:15:00,10134.74
2018-01-01 09:30:00,9667.353000000001
2018-01-01 09:45:00,10012.56
2018-01-01 10:00:00,11161.85
2018-01-01 10:15:00,12039.8
2018-01-01 10:30:00,11988.65
2018-01-01 10:45:00,12115.09
2018-01-01 11:00:00,12271.36
2018-01-01 11:15:00,12169.07
2018-01-01 11:30:00,13407.86
2018-01-01 11:45:00,12941.89
2018-01-01 12:00:00,12492.98
2018-01-01 12:15:00,12666.29
2018-01-01 12:30:00,12958.94
2018-01-01 12:45:00,12679.08
2018-01-01 13:00:00,12252.89
2018-01-01 13:15:00,13329.72
2018-01-01 13:30:00,12998.72
2018-01-01 13:45:00,12608.05
2018-01-01 14:00:00,12762.89
2018-01-01 14:15:00,13669.25
2018-01-01 14:30:00,12549.8
2018-01-01 14:45:00,12011.38
2018-01-01 15:00:00,12005.7
2018-01-01 15:15:00,13120.89
2018-01-01 15:30:00,12451.78
2018-01-01 15:45:00,11840.91
2018-01-01 16:00:00,11627.82
2018-01-01 16:15:00,12936.21
2018-01-01 16:30:00,12194.65
2018-01-01 16:45:00,11477.23
2018-01-01 17:00:00,10845.05
2018-01-01 17:15:00,13000.14
2018-01-01 17:30:00,12739.46
2018-01-01 17:45:00,12501.5
2018-01-01 18:00:00,11980.13
2018-01-01 18:15:00,12664.87
2018-01-01 18:30:00,12747.27
2018-01-01 18:45:00,11524.11
2018-01-01 19:00:00,11485.75
2018-01-01 19:15:00,11644.86
2018-01-01 19:30:00,12198.91
2018-01-01 19:45:00,12720.28
2018-01-01 20:00:00,12687.6
2018-01-01 20:15:00,12380.75
2018-01-01 20:30:00,12343.81
2018-01-01 20:45:00,12953.26
2018-01-01 21:00:00,12194.65
2018-01-01 21:15:00,12571.11
2018-01-01 21:30:00,12296.93
2018-01-01 21:45:00,12985.93
2018-01-01 22:00:00,12912.06
2018-01-01 22:15:00,12375.78
2018-01-01 22:30:00,11751.41
2018-01-01 22:45:00,12410.58
2018-01-01 23:00:00,12231.58
2018-01-01 23:15:00,12264.26
2018-01-01 23:30:00,11698.85
2018-01-01 23:45:00,11534.05
2018-01-02 00:00:00,10688.78
2018-01-02 00:15:00,10327.94
2018-01-02 00:30:00,10621.3
2018-01-02 00:45:00,10528.25
2018-01-02 01:00:00,9680.139000000001
2018-01-02 01:15:00,8282.243
2018-01-02 01:30:00,7131.5380000000005
2018-01-02 01:45:00,7895.834
2018-01-02 02:00:00,8143.022
2018-01-02 02:15:00,8069.15
2018-01-02 02:30:00,8172.855
2018-01-02 02:45:00,8832.025
2018-01-02 03:00:00,7867.420999999999
2018-01-02 03:15:00,7456.86
2018-01-02 03:30:00,7743.826999999999
2018-01-02 03:45:00,7527.892
2018-01-02 04:00:00,7638.7
2018-01-02 04:15:00,7380.147
2018-01-02 04:30:00,7820.54
2018-01-02 04:45:00,7178.418000000001
2018-01-02 05:00:00,7495.218000000001
2018-01-02 05:15:00,8101.8240000000005
2018-01-02 05:30:00,8898.084
2018-01-02 05:45:00,8464.084
2018-01-02 06:00:00,7580.455
2018-01-02 06:15:00,8276.562
2018-01-02 06:30:00,8214.764000000001
2018-01-02 06:45:00,7860.318
2018-01-02 07:00:00,7561.986
2018-01-02 07:15:00,7696.946
2018-01-02 07:30:00,9207.07
2018-01-02 07:45:00,9911.701
2018-01-02 08:00:00,9927.328000000001
2018-01-02 08:15:00,9984.152
2018-01-02 08:30:00,10555.24
2018-01-02 08:45:00,10535.35
2018-01-02 09:00:00,10931.71
2018-01-02 09:15:00,10817.35
2018-01-02 09:30:00,10359.2
2018-01-02 09:45:00,9476.989
2018-01-02 10:00:00,9548.021
2018-01-02 10:15:00,10904.72
2018-01-02 10:30:00,11285.09
2018-01-02 10:45:00,11665.46
2018-01-02 11:00:00,11953.14
2018-01-02 11:15:00,12674.82
2018-01-02 11:30:00,12600.23
2018-01-02 11:45:00,11933.25
2018-01-02 12:00:00,11514.17
2018-01-02 12:15:00,12015.65
2018-01-02 12:30:00,11857.96
2018-01-02 12:45:00,10914.66
2018-01-02 13:00:00,10572.29
2018-01-02 13:15:00,11092.95
2018-01-02 13:30:00,11505.64
2018-01-02 13:45:00,11060.99
2018-01-02 14:00:00,10421.71
2018-01-02 14:15:00,9900.335
2018-01-02 14:30:00,10468.58
2018-01-02 14:45:00,10090.7
2018-01-02 15:00:00,10048.08
2018-01-02 15:15:00,9763.956
2018-01-02 15:30:00,9843.511
2018-01-02 15:45:00,9384.648000000001
2018-01-02 16:00:00,10353.52
2018-01-02 16:15:00,9920.935
2018-01-02 16:30:00,9663.091999999999
2018-01-02 16:45:00,10312.32
2018-01-02 17:00:00,11362.16
2018-01-02 17:15:00,11553.94
2018-01-02 17:30:00,12765.74
2018-01-02 17:45:00,11667.59
2018-01-02 18:00:00,11157.59
2018-01-02 18:15:00,10008.3
2018-01-02 18:30:00,10491.32
2018-01-02 18:45:00,11363.58
2018-01-02 19:00:00,11840.91
2018-01-02 19:15:00,11936.09
2018-01-02 19:30:00,12163.39
2018-01-02 19:45:00,12953.26
2018-01-02 20:00:00,12872.28
2018-01-02 20:15:00,12492.98
2018-01-02 20:30:00,12146.34
2018-01-02 20:45:00,13206.13
2018-01-02 21:00:00,13255.85
2018-01-02 21:15:00,12289.83
2018-01-02 21:30:00,12272.78
2018-01-02 21:45:00,12100.88
2018-01-02 22:00:00,11515.59
2018-01-02 22:15:00,11845.17
2018-01-02 22:30:00,11289.71
2018-01-02 22:45:00,11319.54
2018-01-02 23:00:00,12752.95
2018-01-02 23:15:00,12062.53
2018-01-02 23:30:00,11214.41
2018-01-02 23:45:00,10775.44
2018-01-03 00:00:00,10140.42
2018-01-03 00:15:00,10379.09
2018-01-03 00:30:00,10786.81
2018-01-03 00:45:00,9911.7
2018-01-03 01:00:00,9229.801
2018-01-03 01:15:00,8667.233
2018-01-03 01:30:00,8530.854
2018-01-03 01:45:00,8231.101
2018-01-03 02:00:00,8377.426
2018-01-03 02:15:00,8437.091999999999
2018-01-03 02:30:00,8959.881
2018-01-03 02:45:00,7289.228
2018-01-03 03:00:00,7091.76
2018-01-03 03:15:00,6223.758000000001
2018-01-03 03:30:00,7196.8859999999995
2018-01-03 03:45:00,6972.428000000001
2018-01-03 04:00:00,7011.495
2018-01-03 04:15:00,6520.669
2018-01-03 04:30:00,6595.9619999999995
2018-01-03 04:45:00,6620.823
2018-01-03 05:00:00,7199.728
2018-01-03 05:15:00,6928.388000000001
2018-01-03 05:30:00,6952.539000000001
2018-01-03 05:45:00,7103.125
2018-01-03 06:00:00,6712.453
2018-01-03 06:15:00,6556.185
2018-01-03 06:30:00,6931.229
2018-01-03 06:45:00,7053.403
2018-01-03 07:00:00,7304.854
2018-01-03 07:15:00,8020.849
2018-01-03 07:30:00,9333.506
2018-01-03 07:45:00,9197.837
2018-01-03 08:00:00,9413.062
2018-01-03 08:15:00,8732.582
2018-01-03 08:30:00,9768.218
2018-01-03 08:45:00,11433.19
2018-01-03 09:00:00,11241.41
2018-01-03 09:15:00,10934.55
2018-01-03 09:30:00,11128.465
2018-01-03 09:45:00,11322.38
2018-01-03 10:00:00,10539.62
2018-01-03 10:15:00,9815.098
2018-01-03 10:30:00,10164.57
2018-01-03 10:45:00,10160.31
2018-01-03 11:00:00,12879.39
2018-01-03 11:15:00,12639.3
2018-01-03 11:30:00,11509.9
2018-01-03 11:45:00,11748.57
2018-01-03 12:00:00,12511.45
2018-01-03 12:15:00,11737.2
2018-01-03 12:30:00,10617.75
2018-01-03 12:45:00,11058.14
2018-01-03 13:00:00,11873.58
2018-01-03 13:15:00,12596.68
2018-01-03 13:30:00,11919.04
2018-01-03 13:45:00,11602.24
2018-01-03 14:00:00,11522.69
2018-01-03 14:15:00,11761.35
2018-01-03 14:30:00,11714.47
2018-01-03 14:45:00,11221.52
2018-01-03 15:00:00,12257.15
2018-01-03 15:15:00,11347.95
2018-01-03 15:30:00,11151.91
2018-01-03 15:45:00,10684.52
2018-01-03 16:00:00,11105.03
2018-01-03 16:15:00,11548.26
2018-01-03 16:30:00,12147.77
2018-01-03 16:45:00,10165.99
2018-01-03 17:00:00,10914.66
2018-01-03 17:15:00,11227.2
2018-01-03 17:30:00,12201.75
2018-01-03 17:45:00,11024.05
2018-01-03 18:00:00,9908.148000000001
2018-01-03 18:15:00,10434.49
2018-01-03 18:30:00,10424.55
2018-01-03 18:45:00,12170.5
2018-01-03 19:00:00,12338.13
2018-01-03 19:15:00,12504.34
2018-01-03 19:30:00,12142.08
2018-01-03 19:45:00,12038.38
2018-01-03 20:00:00,13056.96
2018-01-03 20:15:00,12585.32
2018-01-03 20:30:00,12431.89
2018-01-03 20:45:00,12468.83
2018-01-03 21:00:00,13440.53
2018-01-03 21:15:00,12744.43
2018-01-03 21:30:00,12438.99
2018-01-03 21:45:00,12481.61
2018-01-03 22:00:00,12711.75
2018-01-03 22:15:00,12581.05
2018-01-03 22:30:00,11384.89
2018-01-03 22:45:00,11812.5
2018-01-03 23:00:00,11909.1
2018-01-03 23:15:00,12784.21
2018-01-03 23:30:00,11911.94
2018-01-03 23:45:00,10791.07
2018-01-04 00:00:00,9150.246
2018-01-04 00:15:00,9440.053
2018-01-04 00:30:00,8966.985
2018-01-04 00:45:00,9690.083
2018-01-04 01:00:00,7843.271
2018-01-04 01:15:00,6692.564
2018-01-04 01:30:00,6093.061
2018-01-04 01:45:00,7172.736
2018-01-04 02:00:00,7289.227
2018-01-04 02:15:00,7186.941999999999
2018-01-04 02:30:00,6828.945
2018-01-04 02:45:00,7490.956
2018-01-04 03:00:00,7195.465
2018-01-04 03:15:00,6590.279
2018-01-04 03:30:00,6475.2080000000005
2018-01-04 03:45:00,6637.16
2018-01-04 04:00:00,6561.866999999999
2018-01-04 04:15:00,6229.441
2018-01-04 04:30:00,6348.773
2018-01-04 04:45:00,6640.710999999999
2018-01-04 05:00:00,6287.686
2018-01-04 05:15:00,6456.74
2018-01-04 05:30:00,7344.630999999999
2018-01-04 05:45:00,8277.981
2018-01-04 06:00:00,6921.285
2018-01-04 06:15:00,6989.475
2018-01-04 06:30:00,7570.5109999999995
2018-01-04 06:45:00,7522.209
2018-01-04 07:00:00,7827.644
2018-01-04 07:15:00,8241.046
2018-01-04 07:30:00,8440.644
2018-01-04 07:45:00,9407.379
2018-01-04 08:00:00,9866.24
2018-01-04 08:15:00,10198.67
2018-01-04 08:30:00,10884.83
2018-01-04 08:45:00,11786.93
2018-01-04 09:00:00,13285.68
2018-01-04 09:15:00,11819.6
2018-01-04 09:30:00,11547.55
2018-01-04 09:45:00,10985.69
2018-01-04 10:00:00,10529.67
2018-01-04 10:15:00,11816.76
2018-01-04 10:30:00,11600.82
2018-01-04 10:45:00,12241.53
2018-01-04 11:00:00,12633.62
2018-01-04 11:15:00,13353.88
2018-01-04 11:30:00,12801.25
2018-01-04 11:45:00,12242.95
2018-01-04 12:00:00,11079.45
2018-01-04 12:15:00,10823.74
2018-01-04 12:30:00,10606.39
2018-01-04 12:45:00,10717.2
2018-01-04 13:00:00,10178.78
2018-01-04 13:15:00,10254.07
2018-01-04 13:30:00,9758.273000000001
2018-01-04 13:45:00,10620.59
2018-01-04 14:00:00,9495.457
2018-01-04 14:15:00,9231.221
2018-01-04 14:30:00,8942.834
2018-01-04 14:45:00,8930.049
2018-01-04 15:00:00,10133.32
2018-01-04 15:15:00,10083.6
2018-01-04 15:30:00,9961.423
2018-01-04 15:45:00,9793.79
2018-01-04 16:00:00,10327.94
2018-01-04 16:15:00,11123.49
2018-01-04 16:30:00,10971.49
2018-01-04 16:45:00,11390.57
2018-01-04 17:00:00,11409.04
2018-01-04 17:15:00,11248.51
2018-01-04 17:30:00,11812.5
2018-01-04 17:45:00,13035.65
2018-01-04 18:00:00,12049.74
2018-01-04 18:15:00,10786.8
2018-01-04 18:30:00,10302.37
2018-01-04 18:45:00,11501.38
2018-01-04 19:00:00,12738.74
2018-01-04 19:15:00,12633.62
2018-01-04 19:30:00,12814.04
2018-01-04 19:45:00,12559.75
2018-01-04 20:00:00,13861.04
2018-01-04 20:15:00,12958.94
2018-01-04 20:30:00,12353.76
2018-01-04 20:45:00,12147.76
2018-01-04 21:00:00,12870.86
2018-01-04 21:15:00,12322.5
2018-01-04 21:30:00,11742.89
2018-01-04 21:45:00,11235.01
2018-01-04 22:00:00,12072.47
2018-01-04 22:15:00,11757.8
2018-01-04 22:30:00,11261.29
2018-01-04 22:45:00,10420.28
2018-01-04 23:00:00,10819.48
2018-01-04 23:15:00,11440.29
2018-01-04 23:30:00,10931.71
2018-01-04 23:45:00,10481.37
2018-01-05 00:00:00,9974.209
2018-01-05 00:15:00,9354.815999999999
2018-01-05 00:30:00,10792.49
2018-01-05 00:45:00,9155.929
2018-01-05 01:00:00,8593.360999999999
2018-01-05 01:15:00,7885.89
2018-01-05 01:30:00,7804.9130000000005
2018-01-05 01:45:00,7681.319
2018-01-05 02:00:00,7329.004
2018-01-05 02:15:00,8633.138
2018-01-05 02:30:00,8066.309
2018-01-05 02:45:00,6546.2390000000005
2018-01-05 03:00:00,5955.26
2018-01-05 03:15:00,5843.03
2018-01-05 03:30:00,6823.262
2018-01-05 03:45:00,7088.919
2018-01-05 04:00:00,6752.23
2018-01-05 04:15:00,6864.46
2018-01-05 04:30:00,8150.125
2018-01-05 04:45:00,8975.509
2018-01-05 05:00:00,8018.008000000001
2018-01-05 05:15:00,8481.841999999999
2018-01-05 05:30:00,8567.789
2018-01-05 05:45:00,8576.313
2018-01-05 06:00:00,8655.867
2018-01-05 06:15:00,8602.595
2018-01-05 06:30:00,8594.780999999999
2018-01-05 06:45:00,8966.984
2018-01-05 07:00:00,10055.18
2018-01-05 07:15:00,9948.636999999999
2018-01-05 07:30:00,10009.72
2018-01-05 07:45:00,10512.63
2018-01-05 08:00:00,11198.79
2018-01-05 08:15:00,12126.45
2018-01-05 08:30:00,13189.08
2018-01-05 08:45:00,12277.04
2018-01-05 09:00:00,12306.87
2018-01-05 09:15:00,11867.19
2018-01-05 09:30:00,12508.6
2018-01-05 09:45:00,12710.33
2018-01-05 10:00:00,11846.59
2018-01-05 10:15:00,11666.88
2018-01-05 10:30:00,11553.94
2018-01-05 10:45:00,12429.76
2018-01-05 11:00:00,12190.38
2018-01-05 11:15:00,12039.8
2018-01-05 11:30:00,11551.81
2018-01-05 11:45:00,11842.33
2018-01-05 12:00:00,11792.61
2018-01-05 12:15:00,9754.011999999999
2018-01-05 12:30:00,9437.212
2018-01-05 12:45:00,10840.79
2018-01-05 13:00:00,11708.79
2018-01-05 13:15:00,11180.32
2018-01-05 13:30:00,10631.25
2018-01-05 13:45:00,10217.13
2018-01-05 14:00:00,11111.42
2018-01-05 14:15:00,12345.23
2018-01-05 14:30:00,10590.76
2018-01-05 14:45:00,9785.265
2018-01-05 15:00:00,10187.3
2018-01-05 15:15:00,10217.13
2018-01-05 15:30:00,10729.98
2018-01-05 15:45:00,9782.424
2018-01-05 16:00:00,9798.051
2018-01-05 16:15:00,10288.17
2018-01-05 16:30:00,11139.12
2018-01-05 16:45:00,11102.18
2018-01-05 17:00:00,11157.59
2018-01-05 17:15:00,10318.0
2018-01-05 17:30:00,11163.27
2018-01-05 17:45:00,11472.97
2018-01-05 18:00:00,11607.93
2018-01-05 18:15:00,10806.69
2018-01-05 18:30:00,10893.35
2018-01-05 18:45:00,10832.27
2018-01-05 19:00:00,11686.06
2018-01-05 19:15:00,12140.66
2018-01-05 19:30:00,11661.91
2018-01-05 19:45:00,11705.95
2018-01-05 20:00:00,11782.66
2018-01-05 20:15:00,12488.71
2018-01-05 20:30:00,12227.32
2018-01-05 20:45:00,10462.9
2018-01-05 21:00:00,10339.31
2018-01-05 21:15:00,12120.77
2018-01-05 21:30:00,11630.66
2018-01-05 21:45:00,10729.98
2018-01-05 22:00:00,10681.68
2018-01-05 22:15:00,11259.88
2018-01-05 22:30:00,10894.77
2018-01-05 22:45:00,10400.4
2018-01-05 23:00:00,10046.66
2018-01-05 23:15:00,9607.687
2018-01-05 23:30:00,10481.37
2018-01-05 23:45:00,10758.39
2018-01-06 00:00:00,9096.261999999999
2018-01-06 00:15:00,9667.354
2018-01-06 00:30:00,10073.65
2018-01-06 00:45:00,10004.04
2018-01-06 01:00:00,9938.693000000001
2018-01-06 01:15:00,9990.545
2018-01-06 01:30:00,9665.933
2018-01-06 01:45:00,9175.815999999999
2018-01-06 02:00:00,8880.327
2018-01-06 02:15:00,8526.591999999999
2018-01-06 02:30:00,8322.021
2018-01-06 02:45:00,8040.736999999999
2018-01-06 03:00:00,8208.371
2018-01-06 03:15:00,8687.122
2018-01-06 03:30:00,8813.558
2018-01-06 03:45:00,7862.4490000000005
2018-01-06 04:00:00,7428.448
2018-01-06 04:15:00,7733.882
2018-01-06 04:30:00,7667.113
2018-01-06 04:45:00,7831.906
2018-01-06 05:00:00,7461.1230000000005
2018-01-06 05:15:00,6203.869000000001
2018-01-06 05:30:00,5835.928000000001
2018-01-06 05:45:00,6422.646
2018-01-06 06:00:00,6760.755
2018-01-06 06:15:00,7527.893
2018-01-06 06:30:00,6863.04
2018-01-06 06:45:00,6640.001
2018-01-06 07:00:00,6890.031
2018-01-06 07:15:00,7054.8240000000005
2018-01-06 07:30:00,7255.132
2018-01-06 07:45:00,7560.566
2018-01-06 08:00:00,7579.035
2018-01-06 08:15:00,8613.249
2018-01-06 08:30:00,9744.067
2018-01-06 08:45:00,9795.209
2018-01-06 09:00:00,9856.296
2018-01-06 09:15:00,10743.48
2018-01-06 09:30:00,10960.12
2018-01-06 09:45:00,12633.62
2018-01-06 10:00:00,13490.25
2018-01-06 10:15:00,13666.41
2018-01-06 10:30:00,13966.16
2018-01-06 10:45:00,14454.86
2018-01-06 11:00:00,15035.89
2018-01-06 11:15:00,14474.75
2018-01-06 11:30:00,14771.66
2018-01-06 11:45:00,14383.83
2018-01-06 12:00:00,14105.39
2018-01-06 12:15:00,13309.84
2018-01-06 12:30:00,13734.6
2018-01-06 12:45:00,11870.74
2018-01-06 13:00:00,11575.25
2018-01-06 13:15:00,11724.42
2018-01-06 13:30:00,11920.46
2018-01-06 13:45:00,10168.83
2018-01-06 14:00:00,10673.16
2018-01-06 14:15:00,11991.5
2018-01-06 14:30:00,12029.85
2018-01-06 14:45:00,12063.95
2018-01-06 15:00:00,11862.22
2018-01-06 15:15:00,11220.1
2018-01-06 15:30:00,11005.58
2018-01-06 15:45:00,10335.05
2018-01-06 16:00:00,10005.46
2018-01-06 16:15:00,11445.98
2018-01-06 16:30:00,11122.07
2018-01-06 16:45:00,11438.87
2018-01-06 17:00:00,11492.15
2018-01-06 17:15:00,12171.92
2018-01-06 17:30:00,12576.79
2018-01-06 17:45:00,12336.71
2018-01-06 18:00:00,12198.91
2018-01-06 18:15:00,12512.87
2018-01-06 18:30:00,12416.26
2018-01-06 18:45:00,12552.64
2018-01-06 19:00:00,12696.13
2018-01-06 19:15:00,12062.53
2018-01-06 19:30:00,12636.46
2018-01-06 19:45:00,12470.25
2018-01-06 20:00:00,12527.07
2018-01-06 20:15:00,13125.15
2018-01-06 20:30:00,13118.05
2018-01-06 20:45:00,13548.5
2018-01-06 21:00:00,13297.05
2018-01-06 21:15:00,12402.06
2018-01-06 21:30:00,12937.63
2018-01-06 21:45:00,12933.37
2018-01-06 22:00:00,12126.46
2018-01-06 22:15:00,11286.87
2018-01-06 22:30:00,10688.78
2018-01-06 22:45:00,11970.19
2018-01-06 23:00:00,11771.3
2018-01-06 23:15:00,11144.8
2018-01-06 23:30:00,10989.96
2018-01-06 23:45:00,10585.08
2018-01-07 00:00:00,11784.08
2018-01-07 00:15:00,11198.79
2018-01-07 00:30:00,9965.685
2018-01-07 00:45:00,9984.152
2018-01-07 01:00:00,9096.261999999999
2018-01-07 01:15:00,7908.619000000001
2018-01-07 01:30:00,8841.97
2018-01-07 01:45:00,9521.028
2018-01-07 02:00:00,8516.646
2018-01-07 02:15:00,7993.856
2018-01-07 02:30:00,7688.422
2018-01-07 02:45:00,7675.637
2018-01-07 03:00:00,7236.664000000001
2018-01-07 03:15:00,7084.656
2018-01-07 03:30:00,6389.972
2018-01-07 03:45:00,7122.303000000001
2018-01-07 04:00:00,7267.9169999999995
2018-01-07 04:15:00,6968.165
2018-01-07 04:30:00,6632.898
2018-01-07 04:45:00,6256.433000000001
2018-01-07 05:00:00,6401.335999999999
2018-01-07 05:15:00,6487.994000000001
2018-01-07 05:30:00,6999.419
2018-01-07 05:45:00,6892.8730000000005
2018-01-07 06:00:00,7111.648
2018-01-07 06:15:00,7547.78
2018-01-07 06:30:00,7134.379
2018-01-07 06:45:00,6219.496
2018-01-07 07:00:00,5652.6669999999995
2018-01-07 07:15:00,5675.396
2018-01-07 07:30:00,7100.284000000001
2018-01-07 07:45:00,7495.218000000001
2018-01-07 08:00:00,9100.523000000001
2018-01-07 08:15:00,8512.385
2018-01-07 08:30:00,8631.718
2018-01-07 08:45:00,8658.71
2018-01-07 09:00:00,9391.752
2018-01-07 09:15:00,9449.997
2018-01-07 09:30:00,10063.71
2018-01-07 09:45:00,9457.812
2018-01-07 10:00:00,10013.99
2018-01-07 10:15:00,12444.68
2018-01-07 10:30:00,13096.03
2018-01-07 10:45:00,14140.9
2018-01-07 11:00:00,14476.17
2018-01-07 11:15:00,14981.91
2018-01-07 11:30:00,15197.85
2018-01-07 11:45:00,14969.13
2018-01-07 12:00:00,15494.76
2018-01-07 12:15:00,15337.07
2018-01-07 12:30:00,15678.02
2018-01-07 12:45:00,15409.52
2018-01-07 13:00:00,15714.96
2018-01-07 13:15:00,14993.28
2018-01-07 13:30:00,15030.21
2018-01-07 13:45:00,15790.25
2018-01-07 14:00:00,15104.08
2018-01-07 14:15:00,14254.55
2018-01-07 14:30:00,14094.02
2018-01-07 14:45:00,14108.23
2018-01-07 15:00:00,14227.56
2018-01-07 15:15:00,13312.68
2018-01-07 15:30:00,11646.28
2018-01-07 15:45:00,11343.69
2018-01-07 16:00:00,12757.21
2018-01-07 16:15:00,11936.09
2018-01-07 16:30:00,11252.77
2018-01-07 16:45:00,11298.23
2018-01-07 17:00:00,11772.72
2018-01-07 17:15:00,12511.44
2018-01-07 17:30:00,12044.06
2018-01-07 17:45:00,11144.8
2018-01-07 18:00:00,11411.88
2018-01-07 18:15:00,12349.49
2018-01-07 18:30:00,11930.41
2018-01-07 18:45:00,12024.17
2018-01-07 19:00:00,11782.66
2018-01-07 19:15:00,13029.26
2018-01-07 19:30:00,12484.45
2018-01-07 19:45:00,12003.57
2018-01-07 20:00:00,11873.58
2018-01-07 20:15:00,13034.23
2018-01-07 20:30:00,12745.85
2018-01-07 20:45:00,11878.56
2018-01-07 21:00:00,11529.79
2018-01-07 21:15:00,12475.93
2018-01-07 21:30:00,11835.23
2018-01-07 21:45:00,11151.91
2018-01-07 22:00:00,11448.82
2018-01-07 22:15:00,11109.29
2018-01-07 22:30:00,10570.87
2018-01-07 22:45:00,10640.48
2018-01-07 23:00:00,11264.13
2018-01-07 23:15:00,10174.52
2018-01-07 23:30:00,9252.530999999999
2018-01-07 23:45:00,8391.632
2018-01-08 00:00:00,7527.892
2018-01-08 00:15:00,7786.445
2018-01-08 00:30:00,8378.136
2018-01-08 00:45:00,7422.767
2018-01-08 01:00:00,7165.632
2018-01-08 01:15:00,7042.0380000000005
2018-01-08 01:30:00,6630.057
2018-01-08 01:45:00,6449.638000000001
2018-01-08 02:00:00,7302.013000000001
2018-01-08 02:15:00,6490.835999999999
2018-01-08 02:30:00,6110.108
2018-01-08 02:45:00,5932.53
2018-01-08 03:00:00,5902.696999999999
2018-01-08 03:15:00,5933.95
2018-01-08 03:30:00,5789.047
2018-01-08 03:45:00,5695.285
2018-01-08 04:00:00,5530.493
2018-01-08 04:15:00,5317.399
2018-01-08 04:30:00,6455.32
2018-01-08 04:45:00,6006.401999999999
2018-01-08 05:00:00,5840.189
2018-01-08 05:15:00,6094.481
2018-01-08 05:30:00,6235.1230000000005
2018-01-08 05:45:00,6321.071
2018-01-08 06:00:00,6563.2880000000005
2018-01-08 06:15:00,6753.651
2018-01-08 06:30:00,7820.54
2018-01-08 06:45:00,8509.544
2018-01-08 07:00:00,9496.879
2018-01-08 07:15:00,9701.448
2018-01-08 07:30:00,11200.21
2018-01-08 07:45:00,11768.46
2018-01-08 08:00:00,12568.27
2018-01-08 08:15:00,13555.6
2018-01-08 08:30:00,12414.84
2018-01-08 08:45:00,12447.52
2018-01-08 09:00:00,11758.51
2018-01-08 09:15:00,12339.55
2018-01-08 09:30:00,12183.28
2018-01-08 09:45:00,11933.25
2018-01-08 10:00:00,12252.89
2018-01-08 10:15:00,12007.12
2018-01-08 10:30:00,13007.24
2018-01-08 10:45:00,12370.8
2018-01-08 11:00:00,12072.47
2018-01-08 11:15:00,11170.38
2018-01-08 11:30:00,10256.91
2018-01-08 11:45:00,9707.841
2018-01-08 12:00:00,10291.01
2018-01-08 12:15:00,9405.958
2018-01-08 12:30:00,9354.815
2018-01-08 12:45:00,9336.348
2018-01-08 13:00:00,9646.044
2018-01-08 13:15:00,10842.21
2018-01-08 13:30:00,9729.86
2018-01-08 13:45:00,10150.37
2018-01-08 14:00:00,9726.309000000001
2018-01-08 14:15:00,9685.821
2018-01-08 14:30:00,10288.17
2018-01-08 14:45:00,10282.48
2018-01-08 15:00:00,9201.389000000001
2018-01-08 15:15:00,9060.746
2018-01-08 15:30:00,9381.808
2018-01-08 15:45:00,9496.879
2018-01-08 16:00:00,9417.323
2018-01-08 16:15:00,10664.63
2018-01-08 16:30:00,9476.99
2018-01-08 16:45:00,9829.305
2018-01-08 17:00:00,8949.938
2018-01-08 17:15:00,8410.1
2018-01-08 17:30:00,9449.998
2018-01-08 17:45:00,10245.55
2018-01-08 18:00:00,10303.79
2018-01-08 18:15:00,10194.4
2018-01-08 18:30:00,9751.17
2018-01-08 18:45:00,10842.21
2018-01-08 19:00:00,11230.04
2018-01-08 19:15:00,10619.17
2018-01-08 19:30:00,10918.92
2018-01-08 19:45:00,10998.48
2018-01-08 20:00:00,12289.83
2018-01-08 20:15:00,11588.04
2018-01-08 20:30:00,11572.41
2018-01-08 20:45:00,11566.02
2018-01-08 21:00:00,11839.49
2018-01-08 21:15:00,11224.36
2018-01-08 21:30:00,10803.85
2018-01-08 21:45:00,11011.26
2018-01-08 22:00:00,11872.87
2018-01-08 22:15:00,10970.07
2018-01-08 22:30:00,10252.65
2018-01-08 22:45:00,10228.5
2018-01-08 23:00:00,11572.41
2018-01-08 23:15:00,10627.7
2018-01-08 23:30:00,9825.752
2018-01-08 23:45:00,8749.63
2018-01-09 00:00:00,8859.018
2018-01-09 00:15:00,9006.763
2018-01-09 00:30:00,9616.211
2018-01-09 00:45:00,7978.23
2018-01-09 01:00:00,7713.994000000001
2018-01-09 01:15:00,7543.519
2018-01-09 01:30:00,6507.883000000001
2018-01-09 01:45:00,5539.017
2018-01-09 02:00:00,5933.951
2018-01-09 02:15:00,6664.151999999999
2018-01-09 02:30:00,7687.7119999999995
2018-01-09 02:45:00,8049.2609999999995
2018-01-09 03:00:00,7105.965999999999
2018-01-09 03:15:00,6907.079000000001
2018-01-09 03:30:00,7043.459
2018-01-09 03:45:00,7500.9
2018-01-09 04:00:00,7755.191999999999
2018-01-09 04:15:00,7780.763000000001
2018-01-09 04:30:00,7787.866
2018-01-09 04:45:00,7740.985
2018-01-09 05:00:00,7627.335
2018-01-09 05:15:00,8022.269
2018-01-09 05:30:00,8185.642
2018-01-09 05:45:00,9565.068000000001
2018-01-09 06:00:00,8520.908000000001
2018-01-09 06:15:00,8401.576
2018-01-09 06:30:00,8388.791
2018-01-09 06:45:00,9067.85
2018-01-09 07:00:00,9097.683
2018-01-09 07:15:00,9144.563
2018-01-09 07:30:00,9816.52
2018-01-09 07:45:00,11818.18
2018-01-09 08:00:00,12551.22
2018-01-09 08:15:00,12670.55
2018-01-09 08:30:00,12667.71
2018-01-09 08:45:00,13011.5
2018-01-09 09:00:00,11352.21
2018-01-09 09:15:00,10630.54
2018-01-09 09:30:00,10300.95
2018-01-09 09:45:00,10604.96
2018-01-09 10:00:00,10079.33
2018-01-09 10:15:00,8844.811
2018-01-09 10:30:00,9236.903
2018-01-09 10:45:00,10350.67
2018-01-09 11:00:00,10765.5
2018-01-09 11:15:00,10935.97
2018-01-09 11:30:00,10504.1
2018-01-09 11:45:00,10177.36
2018-01-09 12:00:00,9225.539
2018-01-09 12:15:00,8854.756
2018-01-09 12:30:00,9800.891
2018-01-09 12:45:00,9276.681999999999
2018-01-09 13:00:00,9087.738000000001
2018-01-09 13:15:00,9154.507
2018-01-09 13:30:00,9351.974
2018-01-09 13:45:00,9746.908000000001
2018-01-09 14:00:00,9657.408000000001
2018-01-09 14:15:00,9745.487
2018-01-09 14:30:00,9012.445
2018-01-09 14:45:00,9228.38
2018-01-09 15:00:00,8714.114
2018-01-09 15:15:00,8734.002
2018-01-09 15:30:00,8650.186
2018-01-09 15:45:00,9155.928
2018-01-09 16:00:00,8939.993
2018-01-09 16:15:00,8901.636999999999
2018-01-09 16:30:00,8880.327
2018-01-09 16:45:00,9148.825
2018-01-09 17:00:00,9288.046
2018-01-09 17:15:00,10649.0
2018-01-09 17:30:00,9841.38
2018-01-09 17:45:00,9432.239
2018-01-09 18:00:00,9383.229
2018-01-09 18:15:00,9347.713
2018-01-09 18:30:00,9475.568000000001
2018-01-09 18:45:00,8921.525
2018-01-09 19:00:00,9190.023000000001
2018-01-09 19:15:00,9731.280999999999
2018-01-09 19:30:00,10550.98
2018-01-09 19:45:00,12019.91
2018-01-09 20:00:00,11005.58
2018-01-09 20:15:00,10877.73
2018-01-09 20:30:00,11008.42
2018-01-09 20:45:00,11721.58
2018-01-09 21:00:00,11144.8
2018-01-09 21:15:00,10443.01
2018-01-09 21:30:00,10423.13
2018-01-09 21:45:00,11590.88
2018-01-09 22:00:00,11051.04
2018-01-09 22:15:00,11551.1
2018-01-09 22:30:00,10778.28
2018-01-09 22:45:00,11605.09
2018-01-09 23:00:00,12167.65
2018-01-09 23:15:00,11136.28
2018-01-09 23:30:00,10350.67
2018-01-09 23:45:00,10278.22
2018-01-10 00:00:00,11076.61
2018-01-10 00:15:00,10706.54
2018-01-10 00:30:00,10067.97
2018-01-10 00:45:00,8911.581
2018-01-10 01:00:00,8861.858
2018-01-10 01:15:00,8562.106
2018-01-10 01:30:00,9221.276
2018-01-10 01:45:00,8593.36
2018-01-10 02:00:00,7536.416
2018-01-10 02:15:00,7253.710999999999
2018-01-10 02:30:00,7915.723000000001
2018-01-10 02:45:00,7121.593000000001
2018-01-10 03:00:00,6539.137
2018-01-10 03:15:00,5050.322
2018-01-10 03:30:00,5236.424
2018-01-10 03:45:00,5641.302
2018-01-10 04:00:00,5990.775
2018-01-10 04:15:00,5982.2519999999995
2018-01-10 04:30:00,5700.969
2018-01-10 04:45:00,5414.0019999999995
2018-01-10 05:00:00,5659.77
2018-01-10 05:15:00,5732.222
2018-01-10 05:30:00,5668.293000000001
2018-01-10 05:45:00,6013.505999999999
2018-01-10 06:00:00,6033.395
2018-01-10 06:15:00,6235.1230000000005
2018-01-10 06:30:00,7184.101
2018-01-10 06:45:00,7361.679
2018-01-10 07:00:00,7712.573
2018-01-10 07:15:00,7600.344
2018-01-10 07:30:00,8243.886999999999
2018-01-10 07:45:00,9011.024
2018-01-10 08:00:00,11413.3
2018-01-10 08:15:00,10106.33
2018-01-10 08:30:00,10624.85
2018-01-10 08:45:00,11259.87
2018-01-10 09:00:00,12032.69
2018-01-10 09:15:00,11383.47
2018-01-10 09:30:00,10060.87
2018-01-10 09:45:00,9920.225
2018-01-10 10:00:00,9979.891
2018-01-10 10:15:00,10904.72
2018-01-10 10:30:00,10117.69
2018-01-10 10:45:00,10548.14
2018-01-10 11:00:00,10795.33
2018-01-10 11:15:00,10931.71
2018-01-10 11:30:00,10022.51
2018-01-10 11:45:00,9289.466999999999
2018-01-10 12:00:00,9086.317
2018-01-10 12:15:00,8513.806
2018-01-10 12:30:00,9148.825
2018-01-10 12:45:00,9459.940999999999
2018-01-10 13:00:00,8407.26
2018-01-10 13:15:00,8925.787
2018-01-10 13:30:00,9334.928
2018-01-10 13:45:00,9266.735999999999
2018-01-10 14:00:00,9501.141
2018-01-10 14:15:00,9674.457
2018-01-10 14:30:00,8978.35
2018-01-10 14:45:00,8984.033000000001
2018-01-10 15:00:00,8969.826
2018-01-10 15:15:00,8756.732
2018-01-10 15:30:00,9579.274
2018-01-10 15:45:00,9076.374
2018-01-10 16:00:00,8667.233
2018-01-10 16:15:00,9096.261999999999
2018-01-10 16:30:00,9226.96
2018-01-10 16:45:00,8302.133
2018-01-10 17:00:00,9377.545
2018-01-10 17:15:00,9948.636999999999
2018-01-10 17:30:00,9877.605
2018-01-10 17:45:00,9286.625
2018-01-10 18:00:00,10174.52
2018-01-10 18:15:00,10739.92
2018-01-10 18:30:00,11552.52
2018-01-10 18:45:00,10870.62
2018-01-10 19:00:00,12470.25
2018-01-10 19:15:00,11895.6
2018-01-10 19:30:00,12961.78
2018-01-10 19:45:00,13459.0
2018-01-10 20:00:00,13004.4
2018-01-10 20:15:00,13284.26
2018-01-10 20:30:00,12201.75
2018-01-10 20:45:00,12382.17
2018-01-10 21:00:00,11990.07
2018-01-10 21:15:00,11497.12
2018-01-10 21:30:00,12059.69
2018-01-10 21:45:00,12166.23
2018-01-10 22:00:00,12407.74
2018-01-10 22:15:00,11610.77
2018-01-10 22:30:00,11839.49
2018-01-10 22:45:00,11846.59
2018-01-10 23:00:00,10734.24
2018-01-10 23:15:00,10251.23
2018-01-10 23:30:00,9158.77
2018-01-10 23:45:00,10281.06
